#️⃣成龙,#genre#
龙马精神2023,https://vip.lz-cdn3.com/20230601/19230_cc788705/index.m3u8
双龙会,https://vip.lzcdn2.com/20220407/2568_5f5b1efe/index.m3u8
飞龙猛将,https://vip.lzcdn2.com/20220416/3572_fc37396e/index.m3u8
A计划,https://vip.lz-cdn1.com/20220404/859_39f64dc3/index.m3u8
A计划续集,https://vip.lz-cdn10.com/20221012/2731_c2bc9ac9/index.m3u8
剑花烟雨江南,https://vip.lz-cdn7.com/20230123/13709_b130cb0d/index.m3u8
龙拳,https://vip.lz-cdn7.com/20230219/14407_334ae41c/index.m3u8
威龙猛探,https://vip.lz-cdn7.com/20230212/14191_de7ce1b2/index.m3u8
一个好人,https://vip.lzcdn2.com/20220407/2595_9107195e/index.m3u8
龙虎武师,https://vip.lz-cdn1.com/20220621/9252_abd2ad15/index.m3u8
警察故事,https://vip.lz-cdn1.com/20220404/878_6675a846/index.m3u8
警察故事续集,https://vip.lz-cdn1.com/20220404/934_712a88eb/index.m3u8
警察故事3：超级警察,https://vip.lzcdn2.com/20220407/2542_e4ba449e/index.m3u8
新警察故事,https://vip.lz-cdn1.com/20220411/1672_4903ed40/index.m3u8
警察故事2013,https://vip.lz-cdn1.com/20220420/2679_f713e430/index.m3u8
笑拳怪招,https://vip.lz-cdn1.com/20220514/5642_b609a874/index.m3u8
总是有爱在隔离,https://vip.lz-cdn7.com/20230430/15718_73867ad3/index.m3u8
拳精,https://vip.lzcdn2.com/20221112/22448_54ff8ab1/index.m3u8
醉拳1,https://vip.lzcdn2.com/20220407/2609_2d217427/index.m3u8
醉拳2,https://vip.lzcdn2.com/20220407/2608_e44fa717/index.m3u8
我是谁,https://vip.lzcdn2.com/20220407/2579_acb8021a/index.m3u8
蛇鹤八步,https://vip.lzcdn2.com/20220525/7540_e1c1344c/index.m3u8
新精武门,https://v.cdnlz11.com/20231105/18131_b1a93510/index.m3u8
功夫之王,https://vip.lzcdn2.com/20220328/870_2e271dfb/index.m3u8
快餐车,https://vip.lz-cdn1.com/20220404/879_6dd8fd31/index.m3u8
龙牌之谜,https://vip.lzcdn2.com/20220507/5835_ae243021/index.m3u8
辛亥革命,https://vip.lz-cdn1.com/20220420/2731_1c1d02e6/index.m3u8
龙腾虎跃,https://vip.lz-cdn1.com/20220405/1015_a83939d3/index.m3u8
风雨双流星,https://vip.lz-cdn3.com/20230117/17221_7515065b/index.m3u8
玻璃樽,https://vip.lzcdn2.com/20220408/2670_79b0c590/index.m3u8
特务迷城,https://vip.lz-cdn1.com/20220411/1661_39b86486/index.m3u8
一招半式闯江湖,https://vip.lz-cdn1.com/20220405/1093_fdf7065c/index.m3u8
神话2005,https://v.cdnlz11.com/20231214/18684_e7013f69/index.m3u8
杀手壕,https://vip.lz-cdn7.com/20230210/14122_763e0809/index.m3u8
城市猎人,https://vip.lz-cdn3.com/20220905/12758_99ed2330/index.m3u8
功夫梦,https://vip.lzcdn2.com/20220330/1390_e8ea4b50/index.m3u8
尖峰时刻,https://vip.lz-cdn1.com/20220516/5784_283f976e/index.m3u8
尖峰时刻2,https://vip.lz-cdn1.com/20220516/5783_e9aa3deb/index.m3u8
尖峰时刻3,https://vip.lz-cdn1.com/20220516/5780_3d375a51/index.m3u8
奇迹1989,https://vip.lz-cdn1.com/20220404/947_529bcfa4/index.m3u8
急先锋,https://v.cdnlz1.com/20230918/22202_e6250713/index.m3u8
宝贝计划,https://vip.lzcdn2.com/20220528/7769_4caae12d/index.m3u8

▶️┃李连杰,#genre#
中南海保镖,https://vip.lz-cdn.com/20220812/28151_39b3f6bc/index.m3u8
黄飞鸿：狮王争霸,https://vip.lzcdn2.com/20220407/2532_f215264b/index.m3u8
黄飞鸿：壮志凌云,https://vip.lz-cdn3.com/20220701/8549_0dbdff2a/index.m3u8
黄飞鸿：男儿当自强,https://vip.lz-cdn1.com/20220522/6414_1186676f/index.m3u8
黄飞鸿：西域雄师,https://vip.lzcdn2.com/20220407/2533_8885925c/index.m3u8
黄飞鸿：铁鸡斗蜈蚣,https://vip.lzcdn2.com/20220408/2685_2e751b7d/index.m3u8
给爸爸的信,https://vip.lzcdn2.com/20220408/2656_23a87296/index.m3u8
不二神探,https://vip.lz-cdn1.com/20220420/2649_ed9f16de/index.m3u8
太极张三丰1993,https://vip.lzcdn2.com/20220525/7591_59345f29/index.m3u8
新少林五祖,https://vip.lz-cdn8.com/20220816/21838_f34d9204/index.m3u8
方世玉,https://vip.lzcdn2.com/20220408/2653_1a216a6b/index.m3u8
方世玉续集,https://vip.lzcdn2.com/20220504/5456_0f78144a/index.m3u8
龙潭虎穴,https://vip.lz-cdn1.com/20220518/6134_fd8a57a4/index.m3u8
少林寺,https://vip.lz-cdn7.com/20230124/13737_03bd1d60/index.m3u8
功夫之王,https://vip.lzcdn2.com/20220328/870_2e271dfb/index.m3u8
花木兰,https://dow.dowlz2.com//20220416/3561_8c57c8ad/花木兰.Mulan.2020.mp4
冒险王,https://vip.lzcdn2.com/20220407/2551_d6567f1b/index.m3u8
霍元甲,https://vip.lz-cdn1.com/20220403/767_ec768351/index.m3u8
精武英雄,https://vip.lzcdn2.com/20220407/2541_5fed743f/index.m3u8
倚天屠龙记之魔教教主,https://vip.lzcdn2.com/20220407/2596_76a44c5f/index.m3u8
黑侠,https://vip.lzcdn2.com/20220408/2662_23a14900/index.m3u8
致命摇篮,https://vip.lz-cdn1.com/20220518/6134_fd8a57a4/index.m3u8
投名状,https://vip.lzcdn2.com/20220417/3652_d8c82e95/index.m3u8
东方巨龙,https://vip.lz-cdn1.com/20220405/1032_842201a1/index.m3u8
黄飞鸿92之龙行天下,https://vip.lzcdn2.com/20220408/2687_cbaf3f55/index.m3u8
笑傲江湖2：东方不败,https://vip.lzcdn2.com/20220407/2587_751602ef/index.m3u8
英雄2002,https://vip.lzcdn2.com/20220528/7735_258d8679/index.m3u8
少林小子,https://vip.lz-cdn1.com/20220506/4552_78c2a547/index.m3u8
致命罗密欧,https://vip.lzcdn2.com/20220414/3308_473b9270/index.m3u8
南北少林,https://vip.lz-cdn1.com/20220506/4537_1b71c6e1/index.m3u8
龙门飞甲,https://vip.lz-cdn1.com/20220405/1106_dd2b100a/index.m3u8
封神传奇,https://vip.lzcdn2.com/20220429/4996_241b64ff/index.m3u8
游侠，https://vip.lzcdn2.com/20220525/7651_7129595f/index.m3u8
龙在天涯,https://vip.lz-cdn7.com/20230411/15308_3cdd4c23/index.m3u8
敢死队,https://vip.lz-cdn.com/20220810/27936_678848b1/index.m3u8
海洋天堂,https://vip.lz-cdn1.com/20220418/2395_2b2b1eec/index.m3u8
宇宙追缉令,https://vip.lz-cdn7.com/20230124/13726_c786700f/index.m3u8
木乃伊3,https://vip.lzcdn2.com/20220330/1265_aa4caa02/index.m3u8

▶️┃刘德华,#genre#
金手指,https://v.cdnlz12.com/20240213/11557_edfd3617/2000k/hls/mixed.m3u8
天若有情,https://vip.lzcdn2.com/20220407/2575_01706b9d/1200k/hls/mixed.m3u8
与龙共舞,https://vv.jisuzyv.com/play/kazlZ7qd/index.m3u8
旺角卡门,https://vip1.lz-cdn6.com/20220910/27781_612c788e/1000k/hls/mixed.m3u8
赌侠,https://vip.ffzy-online.com/20221017/869_4ed0959f/2000k/hls/mixed.m3u8
投奔怒海,https://vip.ffzy-play7.com/20230508/24247_9a75e35b/2000k/hls/mixed.m3u8
彩云曲,https://vip.ffzy-play7.com/20230410/21806_c0b04636/2000k/hls/mixed.m3u8
暗战,https://vip1.lz-cdn1.com/20220529/6926_babcbc30/1200k/hls/mixed.m3u8
我的少女时代,https://vip.ffzy-play1.com/20221018/502_2dd20259/2000k/hls/mixed.m3u8
金鸡,https://vip1.lz-cdn1.com/20221219/19427_be648962/1800k/hls/mixed.m3u8
好好拍电影,https://vip1.lz-cdn1.com/20220318/284_69bf137b/1200k/hls/mixed.m3u8
盲探,https://vip1.lz-cdn.com/20220907/32058_18aee816/1000k/hls/mixed.m3u8
流浪地球2,https://vip.ffzy-online2.com/20230416/32868_9cb1983d/2000k/hls/mixed.m3u8
人潮汹涌,https://vip.lz-cdn3.com/20220630/8501_455f6ed6/1000k/hls/mixed.m3u8
拆弹专家2,https://vip1.lz-cdn1.com/20220509/4927_47a1ac5f/1200k/hls/mixed.m3u8
热血合唱团,https://vip.lz-cdn3.com/20220708/8989_07d25839/1000k/hls/mixed.m3u8
追龙,https://vip.ffzy-play7.com/20221104/1466_50247f5f/2000k/hls/mixed.m3u8
花椒之味,https://vip.ffzy-play7.com/20230316/18326_9c3533eb/2000k/hls/mixed.m3u8
建党伟业,https://vip1.lz-cdn1.com/20220420/2676_108eced1/1200k/hls/mixed.m3u8
停不了的爱,https://vip.lz-cdn3.com/20220918/13775_7e036fea/1000k/hls/mixed.m3u8
金鸡SSS,https://vip.lz-cdn3.com/20221123/16209_5842a56c/1800k/hls/mixed.m3u8
至尊三十六计之偷天换日,https://vip.ffzy-play.com/20221015/1085_37999806/2000k/hls/mixed.m3u8
最佳损友,https://vip.ffzy-play7.com/20221115/4630_078a1b22/2000k/hls/mixed.m3u8
战神传说,https://vip.ffzy-play7.com/20221129/7734_53205031/2000k/hls/mixed.m3u8
绝代双骄,https://vip.lzcdn2.com/20220407/2543_e350a2dc/1200k/hls/mixed.m3u8
杀手的童话,https://vip1.lz-cdn.com/20220812/28140_4b464083/1000k/hls/mixed.m3u8
豪门夜宴,https://vip.ffzy-play.com/20221204/29458_3909f6d0/2000k/hls/mixed.m3u8
群龙夺宝,https://vip.ffzy-play7.com/20221115/4563_83e36ac1/2000k/hls/mixed.m3u8
侠盗联盟,https://vip.ffzy-play7.com/20221104/1442_e5eca889/2000k/hls/mixed.m3u8
狄仁杰之通天帝国,https://vip.lzcdn2.com/20220528/7778_ceaa7871/1200k/hls/mixed.m3u8
刀剑笑,https://vip.lzcdn2.com/20220523/7336_d076d538/1200k/hls/mixed.m3u8
夏日福星,https://vip.ffzy-play7.com/20230118/11937_84244e52/2000k/hls/mixed.m3u8
童梦奇缘,https://vip.ffzy-play7.com/20221108/2654_3f1e6e66/2000k/hls/mixed.m3u8
极道追踪,https://vip.ffzy-play7.com/20221113/3948_79202b67/2000k/hls/mixed.m3u8
省港旗兵3逃出香港,https://vip.lz-cdn16.com/20230522/21321_c0234b77/2000k/hls/mixed.m3u8
义胆雄心,https://vip.ffzy-play7.com/20221129/7714_a0c75de1/2000k/hls/mixed.m3u8
第一茧,https://vip.ffzy-play7.com/20230208/13743_d19cd6f4/2000k/hls/mixed.m3u8
铁道飞虎,https://vip1.lz-cdn8.com/20220816/21833_65036e4e/1000k/hls/mixed.m3u8
赌神,https://vip1.lz-cdn.com/20220622/20002_d8478ab3/1000k/hls/mixed.m3u8
机Boy小子之真假威龙,https://vip.ffzy-play7.com/20221112/3562_579ab9ed/2000k/hls/mixed.m3u8
醉拳3,https://vip.lzcdn2.com/20220528/7719_845dbb4a/1200k/hls/mixed.m3u8
赌侠大战拉斯维加斯,https://vip.ffzy-online.com/20221017/873_cf765959/2000k/hls/mixed.m3u8
大冒险家,https://vip.lzcdn2.com/20220408/2712_22360368/1200k/hls/mixed.m3u8
烈火战车,https://vip.ffzy-play7.com/20221112/3548_0907572b/2000k/hls/mixed.m3u8
肝胆相照,https://vip.ffzy-play7.com/20221115/4468_44f459bb/2000k/hls/mixed.m3u8
与龙共舞,https://vip1.lz-cdn7.com/20230114/13483_d44d2cb2/2000k/hls/mixed.m3u8
拆弹专家,https://vip.lz-cdn3.com/20220812/11261_d4322bad/1000k/hls/mixed.m3u8
拆弹专家2,https://vip1.lz-cdn1.com/20220509/4927_47a1ac5f/1200k/hls/mixed.m3u8
决战紫禁之巅,https://vip.ffzy-play7.com/20230413/22211_bfb8d6b2/2000k/hls/mixed.m3u8
十面埋伏,https://vip.ffzy-play7.com/20221117/5218_ad30347f/2000k/hls/mixed.m3u8
英雄好汉,https://vip.lzcdn2.com/20220530/7921_5edb2cc4/1200k/hls/mixed.m3u8
五亿探长雷洛传,https://vip.ffzy-play7.com/20221208/8949_c71cec39/2000k/hls/mixed.m3u8
阿虎,https://vip1.lz-cdn8.com/20220722/19147_613ede5f/1000k/hls/mixed.m3u8
我的特工爷爷,https://vip.ffzy-play7.com/20221106/1991_83a8af20/2000k/hls/mixed.m3u8
墨攻,https://vip1.lz-cdn8.com/20220821/22467_f559649f/1000k/hls/mixed.m3u8
赌侠1999,https://vip.lzcdn2.com/20220408/2650_ebb573c7/1200k/hls/mixed.m3u8
五虎将之决裂,https://vip.lzcdn2.com/20220523/7373_ae0dc6d1/1200k/hls/mixed.m3u8
异域,https://vip.ffzy-play7.com/20230404/20968_1ebc44f4/2000k/hls/mixed.m3u8
再战江湖,https://vip.lz-cdn3.com/20230711/20183_ff5934c4/2000k/hls/mixed.m3u8
五亿探长雷洛传,https://vip.ffzy-play7.com/20221208/8949_c71cec39/2000k/hls/mixed.m3u8
飙城,https://vip.ffzy-play7.com/20230315/18178_3dac46d8/2000k/hls/mixed.m3u8
群星会,https://vip.ffzy-online1.com/20230612/41218_c203f882/2000k/hls/mixed.m3u8
家在香港,https://vip.ffzy-play7.com/20221208/8617_0e0495e2/2000k/hls/mixed.m3u8
门徒,https://vip.ffzy-play.com/20221017/1787_03664048/2000k/hls/mixed.m3u8
黑马王子,https://vip.lzcdn2.com/20220523/7349_0f4fa5dc/1200k/hls/mixed.m3u8
爱情梦幻号,https://vip.ffzy-play7.com/20221113/4075_e6114091/2000k/hls/mixed.m3u8
王牌逗王牌,https://vip.ffzy-play7.com/20221106/1948_1fe2a4fd/2000k/hls/mixed.m3u8
金鸡2,https://vip.ffzy-play7.com/20230131/12877_f1d20936/2000k/hls/mixed.m3u8
爱君如梦,https://vip.lzcdn2.com/20220412/2960_a220fd95/1200k/hls/mixed.m3u8
九二神雕之痴心情长剑,https://vip.ffzy-play7.com/20221207/8399_8604bcc3/2000k/hls/mixed.m3u8
游龙戏凤,https://vip.lz-cdn7.com/20230522/16115_d270e8bd/2000k/hls/mixed.m3u8
中环英雄,https://vip.ffzy-play7.com/20221129/7743_4656dd25/2000k/hls/mixed.m3u8
得闲饮茶（粤语）,https://cdn17.yzzy-online.com/20230822/16803_0f9d9c16/2000k/hls/index.m3u8
至尊无上II之永霸天下,https://vip.ffzy-play.com/20221015/1090_e30609f3/2000k/hls/mixed.m3u8
小小小警察,https://vip.ffzy-play7.com/20230131/12926_ddf93907/2000k/hls/mixed.m3u8
求恋期,https://vip.ffzy-play7.com/20221113/4155_94583b5a/2000k/hls/mixed.m3u8
专钓大鳄,https://vip.ffzy-play7.com/20221117/5274_43784b5d/2000k/hls/mixed.m3u8
至尊计状元才,https://vip.ffzy-play7.com/20221112/3440_9d089764/2000k/hls/mixed.m3u8
天地雄心,https://vip.ffzy-play7.com/20221113/4187_a7c41927/2000k/hls/mixed.m3u8
法内情大结局,https://vip.ffzy-play7.com/20230309/17765_c1009eb6/2000k/hls/mixed.m3u8
给他们一个机会,https://vip.ffzy-play7.com/20221118/5497_b20e18ec/2000k/hls/mixed.m3u8

▶️┃任达华,#genre#
灯火阑珊,https://vip.ffzy-play7.com/20230307/17494_ed5b0578/2000k/hls/mixed.m3u8
源生罪,https://svipsvip.ffzyread1.com/20240511/27066_d7a813a1/2000k/hls/mixed.m3u8
枪火,https://vip.ffzy-play7.com/20221227/10065_b09200bc/2000k/hls/mixed.m3u8
岁月神偷,https://vip.ffzy-play7.com/20221127/7247_8d31df7b/2000k/hls/mixed.m3u8
救火英雄,https://vip.ffzy-play7.com/20221028/507_dd0ad69a/2000k/hls/mixed.m3u8
黑社会,https://vip.ffzy-online2.com/20230524/37797_ffe20e45/2000k/hls/mixed.m3u8
非常突然,https://vip.ffzy-play7.com/20230413/22195_b57eee81/2000k/hls/mixed.m3u8
濠江风云,https://vip.ffzy-online2.com/20230607/38949_8537412d/2000k/hls/mixed.m3u8
被消失的凶案,https://vip.ffzy-play7.com/20230308/17595_54febb0c/2000k/hls/mixed.m3u8
绝密跟踪,https://vip.ffzy-play7.com/20221123/6621_03976f06/2000k/hls/mixed.m3u8
叶问2宗师传奇,https://vip.ffzy-play2.com/20221127/1618_b175df0e/2000k/hls/mixed.m3u8
断网,https://vip.ffzy-play5.com/20230331/9556_1493c10d/2000k/hls/mixed.m3u8
赤裸羔羊,https://vip.ffzy-play7.com/20230514/24692_bdfdb7e1/2000k/hls/mixed.m3u8
楼下的房客,https://vip.ffzy-play7.com/20230320/18994_f16a1bbf/2000k/hls/mixed.m3u8
我未成年,https://vip.ffzy-play7.com/20230409/21687_91f38f64/2000k/hls/mixed.m3u8
侠盗高飞,https://vip.ffzy-play7.com/20221112/3315_eef8cb87/2000k/hls/mixed.m3u8
杀破狼,https://vip.ffzy-play.com/20221018/1977_3ef7fe7e/2000k/hls/mixed.m3u8
女子监狱,https://vip.ffzy-play7.com/20221115/4723_4356daa6/2000k/hls/mixed.m3u8
冰封：重生之门,https://vip.ffzy-play7.com/20221028/421_aa257ab3/2000k/hls/mixed.m3u8
惊天大贼王,https://vip.ffzy-play7.com/20221209/9080_64c55f8f/2000k/hls/mixed.m3u8
豪门夜宴,https://vip.ffzy-play.com/20221204/29459_55b937ef/2000k/hls/mixed.m3u8
杀手之王,https://vip.ffzy-play7.com/20230101/10754_72e3a4dc/2000k/hls/mixed.m3u8
父子雄兵,https://vip.ffzy-play2.com/20221124/1286_98a3d353/2000k/hls/mixed.m3u8
触目惊心,https://vip.ffzy-play7.com/20221112/3787_815ab180/2000k/hls/mixed.m3u8
太极侠,https://vip.ffzy-play7.com/20230509/24356_bb577f04/2000k/hls/mixed.m3u8
谜城,https://vip.ffzy-play.com/20221017/1802_a87793fc/2000k/hls/mixed.m3u8
天水围的夜与雾,https://vip.ffzy-play7.com/20230516/24770_d1343690/2000k/hls/mixed.m3u8
宅女侦探桂香,https://vip.ffzy-play7.com/20221103/1181_e87a64d1/2000k/hls/mixed.m3u8
海狼,https://vip.ffzy-play7.com/20221129/7645_d8e3b7a8/2000k/hls/mixed.m3u8
密战,https://vip.ffzy-play.com/20221017/1809_16a167a7/2000k/hls/mixed.m3u8
香港舞男,https://vip.ffzy-play8.com/20240620/2789_98d8fb7b/2000k/hls/mixed.m3u8
李洛夫奇案,https://vip.ffzy-play7.com/20221227/10056_8b266003/2000k/hls/mixed.m3u8
鬼巴士,https://vip.ffzy-play7.com/20221113/3916_70672f42/2000k/hls/mixed.m3u8
告别有情天,https://vip.ffzy-play7.com/20230226/16514_82ba979d/2000k/hls/mixed.m3u8
铁胆雄风,https://vip.ffzy-play7.com/20221115/4777_85332cea/2000k/hls/mixed.m3u8
夺命劫,https://vip.ffzy-play2.com/20221124/1274_e396db8a/2000k/hls/mixed.m3u8
机动部队3之绝路,https://vip.ffzy-online1.com/20230621/41582_9b14a371/2000k/hls/mixed.m3u8
醉拳3,https://vip.ffzy-play7.com/20221112/3468_38ba3d24/2000k/hls/mixed.m3u8
光辉岁月,https://vip.ffzy-play7.com/20221123/6606_707d51d6/2000k/hls/mixed.m3u8
龙虎戏凤,https://vip.ffzy-play7.com/20221112/3560_5a6e5263/2000k/hls/mixed.m3u8
乌鼠机密档案,https://vip.ffzy-play7.com/20221113/3947_16ea41b8/2000k/hls/mixed.m3u8
龙腾四海,https://vip.ffzy-play7.com/20221112/3563_422b85c5/2000k/hls/mixed.m3u8
控制,https://vip.ffzy-play7.com/20221123/6624_064d64eb/2000k/hls/mixed.m3u8
烈火战车2：极速传说,https://vip.ffzy-play7.com/20221112/3546_d05aafba/2000k/hls/mixed.m3u8
慌心假期,https://vip.ffzy-play7.com/20221127/7218_8e364074/2000k/hls/mixed.m3u8
黑白迷宫,https://vip.ffzy-online.com/20221017/1027_a56c8094/2000k/hls/mixed.m3u8
幕后玩家,https://vip.ffzy-play.com/20221018/1847_f9676687/2000k/hls/mixed.m3u8
死亡网络,https://vip.ffzy-play7.com/20221108/2746_e802d6bb/2000k/hls/mixed.m3u8
千王,https://vip.ffzy-play7.com/20221208/8895_09d63d8a/2000k/hls/mixed.m3u8
四千金,https://vip.ffzy-play7.com/20230424/23010_77b35863/2000k/hls/mixed.m3u8
撕票风云,https://vip.ffzy-play7.com/20221230/10455_cac76fcf/2000k/hls/mixed.m3u8
一哥,https://vip.ffzy-play7.com/20221115/4802_c4c79116/2000k/hls/mixed.m3u8
冒险游戏,https://vip.ffzy-play7.com/20221112/3586_802cd004/2000k/hls/mixed.m3u8
那夜凌晨我坐上了旺角开往大埔的红VAN,https://vip.ffzy-play7.com/20230309/17787_b2b4402d/2000k/hls/mixed.m3u8
铁三角,https://vip.ffzy-online2.com/20230409/32040_d919f74f/2000k/hls/mixed.m3u8
廉政第一击,https://vip.ffzy-play7.com/20221227/10057_21e4d563/2000k/hls/mixed.m3u8
制服,https://vip.ffzy-online1.com/20230409/35253_0bfb602b/2000k/hls/mixed.m3u8
爱我就陪我看电影,https://vip.ffzy-play7.com/20221103/1069_08958c7e/2000k/hls/mixed.m3u8
极致追击,https://vip.ffzy-online1.com/20230616/41441_64a687fe/2000k/hls/mixed.m3u8
救命宣言,https://vip.ffzy-play7.com/20230409/21629_f77bee2f/2000k/hls/mixed.m3u8
四大探长,https://vip.ffzy-play7.com/20230317/18568_a88b647a/2000k/hls/mixed.m3u8
别有动机,https://vip.ffzy-play7.com/20230413/22179_d67735a6/2000k/hls/mixed.m3u8
桂花巷,https://vip.ffzy-play7.com/20221117/5018_90b410e5/2000k/hls/mixed.m3u8
两厢情愿,https://vip.ffzy-play7.com/20221112/3544_2e00d57f/2000k/hls/mixed.m3u8
醉生梦死之湾仔之虎,https://vip.ffzy-play7.com/20221228/10214_1a12c8f8/2000k/hls/mixed.m3u8
秃鹰档案,https://vip.ffzy-play7.com/20221113/4198_4765c256/2000k/hls/mixed.m3u8
极度重犯,https://vip.ffzy-play7.com/20221229/10328_6653c035/2000k/hls/mixed.m3u8
再见妈咪,https://vip.ffzy-play7.com/20230410/21893_57ec71d9/2000k/hls/mixed.m3u8
东方老虎,https://vip.ffzy-play7.com/20221113/4094_a0171d2c/2000k/hls/mixed.m3u8
非常青春期,https://vip.ffzy-play7.com/20230212/14368_bd35f9f4/2000k/hls/mixed.m3u8
龙跨四海之致命情人,https://vip.ffzy-play7.com/20221112/3561_788798a0/2000k/hls/mixed.m3u8
乌龙贼替身,https://v.cdnlz19.com/20240516/34029_334a4431/2000k/hls/mixed.m3u8


▶️┃梁朝伟,#genre#
金手指,https://svipsvip.ffzyread1.com/20240213/24278_dc4a204f/2000k/hls/mixed.m3u8
2046,https://vip.ffzy-play7.com/20221126/7051_2bcc22e4/2000k/hls/mixed.m3u8
重庆森林,https://vip.ffzy-online1.com/20230711/42267_332d6423/2000k/hls/mixed.m3u8
春光乍泄,https://vip.ffzy-play7.com/20230213/14499_7d8ab65b/2000k/hls/mixed.m3u8
天下无双,https://vip.ffzy-play2.com/20230427/46241_e72cbca5/2000k/hls/mixed.m3u8
新仙鹤神针,https://vip.ffzy-play7.com/20221112/3357_c8500611/2000k/hls/mixed.m3u8
尚气与十环传奇,https://vip.ffzy-play7.com/20221227/9987_b260e2c5/2000k/hls/mixed.m3u8
赤壁(上),https://vip.ffzy-play7.com/20221231/10512_a999146a/2000k/hls/mixed.m3u8
赤壁(下),https://vip.ffzy-play7.com/20221231/10513_d4f9f843/2000k/hls/mixed.m3u8
洪兴仔之江湖大风暴,https://vip.ffzy-play7.com/20221208/8829_4733b9a0/2000k/hls/mixed.m3u8
流氓医生,https://vip.ffzy-play7.com/20221112/3552_c27df694/2000k/hls/mixed.m3u8
豪门夜宴,https://vip.ffzy-play.com/20221204/29458_3909f6d0/2000k/hls/mixed.m3u8
每天爱你8小时,https://vip.ffzy-play7.com/20221112/3589_ebde9eea/2000k/hls/mixed.m3u8
射雕英雄传之东成西就,https://vip.ffzy-play.com/20221018/2016_4525364a/2000k/hls/mixed.m3u8
辣手神探,https://vip.ffzy-play7.com/20221112/3526_ba428b29/2000k/hls/mixed.m3u8
异域之末路英雄,https://vip.ffzy-play7.com/20221113/4238_dee715f5/2000k/hls/mixed.m3u8
新流星蝴蝶剑,https://vip.ffzy-play7.com/20230205/13377_4d26288e/2000k/hls/mixed.m3u8
侠骨仁心,https://vip.ffzy-play2.com/20221127/1587_a49f7cfa/2000k/hls/mixed.m3u8
摆渡人,https://vip.ffzy-play7.com/20221105/1685_0bfdd536/2000k/hls/mixed.m3u8
正牌韦小宝之奉旨沟女,https://vip.ffzy-play7.com/20221112/3439_af5153a4/2000k/hls/mixed.m3u8
捉妖记2,https://vip.ffzy-play.com/20221015/1132_e48d9c77/2000k/hls/mixed.m3u8
地下情,https://vip.ffzy-play7.com/20221117/4995_c179450d/2000k/hls/mixed.m3u8
海上花,https://vip.ffzy-play7.com/20230326/19727_00f910d1/2000k/hls/mixed.m3u8
千王1991,https://vip.ffzy-play7.com/20221208/8895_09d63d8a/2000k/hls/mixed.m3u8
杀手蝴蝶梦,https://vip.ffzy-play7.com/20230211/14190_307141b4/2000k/hls/mixed.m3u8
黑狱断肠歌之砌生猪肉,https://vip.ffzy-play7.com/20221209/9061_b07a4bf6/2000k/hls/mixed.m3u8
魔画情,https://vip.ffzy-play7.com/20221112/3619_bc4fa51a/2000k/hls/mixed.m3u8
三轮车夫,https://v.cdnlz16.com/20230914/38987_ef95e14f/2000k/hls/mixed.m3u8
暗花（粤语）,https://vip.ffzy-play7.com/20221223/9366_7b67bcf4/2000k/hls/mixed.m3u8
地下铁2003,https://v.cdnlz1.com/20231116/23823_2114e480/2000k/hls/mixed.m3u8
欧洲攻略,https://vip.ffzy-play7.com/20230116/11555_5a91f499/2000k/hls/mixed.m3u8
开心快活人,https://vip.ffzy-play7.com/20221115/4523_7f9cfc01/2000k/hls/mixed.m3u8
花心红杏,https://vip.lz-cdn1.com/20230726/21446_1433fc38/2000k/hls/mixed.m3u8
悲情城市,https://vip.ffzy-play7.com/20230306/17309_53fae91b/2000k/hls/mixed.m3u8
中环英雄,https://vip.ffzy-play7.com/20221129/7743_4656dd25/2000k/hls/mixed.m3u8
沙滩仔与周师奶,https://vip.ffzy-play7.com/20221113/4164_31b04baf/2000k/hls/mixed.m3u8
人民英雄,https://vip.ffzy-play7.com/20230425/23122_ce832adb/2000k/hls/mixed.m3u8

▶️┃王祖贤,#genre#
青蛇,https://vip.ffzy-play7.com/20221129/7682_4b332ba7/2000k/hls/mixed.m3u8
潘金莲之前世今生,https://vip.ffzy-play.com/20221012/111_d693496d/2000k/hls/mixed.m3u8
赌神,https://vip.ffzy-online.com/20221017/865_74da177a/2000k/hls/mixed.m3u8
大丈夫日记,https://vip.ffzy-play7.com/20221115/4649_bfd8d98f/2000k/hls/mixed.m3u8
射雕英雄传之东成西就,https://vip.ffzy-play.com/20221018/2016_4525364a/2000k/hls/mixed.m3u8
游园惊梦,https://vip.ffzy-play7.com/20230208/13814_dc9b86b9/2000k/hls/mixed.m3u8
阿婴,https://vip.ffzy-play7.com/20230506/24036_b242c824/2000k/hls/mixed.m3u8
天官赐福,https://vip.ffzy-play7.com/20221207/8480_955369d9/2000k/hls/mixed.m3u8
豪门夜宴,https://vip.ffzy-play.com/20221204/29458_3909f6d0/2000k/hls/mixed.m3u8
心动,https://vip.ffzy-play7.com/20230317/18608_2ac6bbfb/2000k/hls/mixed.m3u8
再见七日情,https://vip.ffzy-play7.com/20230516/24778_3fb008be/2000k/hls/mixed.m3u8
惊魂动魄,https://vip.ffzy-play7.com/20221208/8681_7386a052/2000k/hls/mixed.m3u8
新流星蝴蝶剑,https://vip.ffzy-play7.com/20230205/13377_4d26288e/2000k/hls/mixed.m3u8
赌城大亨之新哥传奇,https://vip.ffzy-online.com/20221017/864_5fbb1d87/2000k/hls/mixed.m3u8
金装大酒店,https://vip.ffzy-play7.com/20221117/5043_0f74c97e/2000k/hls/mixed.m3u8
灵狐,https://vip.ffzy-play7.com/20221112/3549_1b85f627/2000k/hls/mixed.m3u8
打工狂想曲,https://vip.ffzy-play7.com/20230125/12353_ce870032/2000k/hls/mixed.m3u8
法中情,https://vip.ffzy-play7.com/20230424/22980_aa8090f1/2000k/hls/mixed.m3u8
合家欢,https://vip.ffzy-play7.com/20230424/22981_1f900e4b/2000k/hls/mixed.m3u8
画中仙,https://vip.ffzy-play7.com/20221115/4492_8bad0615/2000k/hls/mixed.m3u8
惊魂记,https://vip.ffzy-play7.com/20230302/16802_6bd2afee/2000k/hls/mixed.m3u8
打工皇帝,https://vip.ffzy-play7.com/20221117/4988_32084ab1/2000k/hls/mixed.m3u8
杀手蝴蝶梦,https://vip.ffzy-play7.com/20230211/14190_307141b4/2000k/hls/mixed.m3u8
摩登如来神掌,https://vip.ffzy-play7.com/20221112/3613_7a9c84fb/2000k/hls/mixed.m3u8
俾鬼捉,https://vip.ffzy-play7.com/20221209/9023_23071927/2000k/hls/mixed.m3u8
魔画情,https://vip.ffzy-play7.com/20221112/3619_bc4fa51a/2000k/hls/mixed.m3u8
标错参,https://vip.ffzy-play7.com/20221115/4423_ec99f147/2000k/hls/mixed.m3u8
追日,https://vip.ffzy-play7.com/20221129/7755_3a0215ed/2000k/hls/mixed.m3u8
东方老虎,https://vip.ffzy-play7.com/20221113/4094_a0171d2c/2000k/hls/mixed.m3u8
都市煞星,https://vip.ffzy-play7.com/20221113/3885_a461edd6/2000k/hls/mixed.m3u8
北京猿人,https://vip.ffzy-play7.com/20230217/14975_2a73e5b3/2000k/hls/mixed.m3u8
绝桥智多星,https://vip.ffzy-play7.com/20221129/7664_2249081a/2000k/hls/mixed.m3u8
中日南北和,https://vip.ffzy-play7.com/20230213/14647_bdbe50f4/2000k/hls/mixed.m3u8

▶️┃林青霞,#genre#
重庆森林,https://vip.ffzy-online1.com/20230711/42267_332d6423/2000k/hls/mixed.m3u8
金玉良缘红楼梦,https://vip.ffzy-play7.com/20230205/13338_f240f890/2000k/hls/mixed.m3u8
八百壮士,https://v.cdnlz19.com/20240711/39531_53b9618e/2000k/hls/mixed.m3u8
警察故事,https://vip1.lz-cdn1.com/20220404/878_6675a846/1200k/hls/mixed.m3u8
东邪西毒：终极版,https://vip.ffzy-play7.com/20221126/7187_ef433999/2000k/hls/mixed.m3u8
新天龙八部之天山童姥,https://vip.ffzy-play7.com/20221112/3355_8fe53bcd/2000k/hls/mixed.m3u8
射雕英雄传之东成西就,https://vip.ffzy-play.com/20221018/2016_4525364a/2000k/hls/mixed.m3u8
鹿鼎记,https://vip.ffzy-online2.com/20230403/30732_157cb8d7/2000k/hls/mixed.m3u8
鹿鼎记2：神龙教,https://vip.ffzy-play7.com/20230101/10739_492582b8/2000k/hls/mixed.m3u8
白发魔女传,https://vip.ffzy-online.com/20221015/598_e3bb4b6b/2000k/hls/mixed.m3u8
刀剑笑,https://vip.ffzy-play7.com/20221112/3808_6690be34/2000k/hls/mixed.m3u8
蜀山：新蜀山剑侠,https://vip.ffzy-play7.com/20221115/4566_fdf3285b/2000k/hls/mixed.m3u8
脂粉奇兵,https://vip.ffzy-play7.com/20221116/4905_7cc75e10/2000k/hls/mixed.m3u8
暗恋桃花源,https://vip.ffzy-play7.com/20221113/3832_dea720b8/2000k/hls/mixed.m3u8
六指琴魔,https://vip.ffzy-play7.com/20221112/3553_942f41c9/2000k/hls/mixed.m3u8
夺命佳人https://vip.ffzy-play7.com/20221115/4451_2bdac368/2000k/hls/mixed.m3u8
中国女兵,https://vip.ffzy-play7.com/20221115/4825_881215e6/2000k/hls/mixed.m3u8
惊魂记,https://vip.ffzy-play7.com/20230302/16802_6bd2afee/2000k/hls/mixed.m3u8
滚滚红尘,https://vip.ffzy-play7.com/20230211/14303_cada8f87/2000k/hls/mixed.m3u8
火云传奇,https://vip.ffzy-play7.com/20230219/15253_fc18d7d5/2000k/hls/mixed.m3u8
刀马旦,https://vip.ffzy-play7.com/20221117/4993_c93149b3/2000k/hls/mixed.m3u8
迷你特攻队,https://vip.ffzy-play7.com/20221117/5052_54ce37e4/2000k/hls/mixed.m3u8
今夜星光灿烂,https://vip.ffzy-play7.com/20230209/14006_fa53cdf0/2000k/hls/mixed.m3u8
我爱夜来香,https://vip.ffzy-play7.com/20221206/8154_d05cbb3e/2000k/hls/mixed.m3u8
在水一方,https://yzzy.play-cdn17.com/20230720/11869_fc747366/2000k/hls/index.m3u8
追男仔,https://vip.ffzy-play6.com/20221207/10720_f6567c62/3000k/hls/mixed.m3u8
旗正飘飘,https://vip.lz-cdn1.com/20220510/5091_fd697a89/1200k/hls/mixed.m3u8
白发魔女传,https://vip.ffzy-online.com/20221015/598_e3bb4b6b/2000k/hls/mixed.m3u8
我是一片云,https://vip.ffzy-play7.com/20230212/14389_ea75aabf/2000k/hls/mixed.m3u8
一颗红豆,https://vip.lz-cdn3.com/20230627/19886_9b009874/2000k/hls/mixed.m3u8
碧血黄花,https://vip.lz-cdn3.com/20230710/20152_fa56469a/2000k/hls/mixed.m3u8
古镜幽魂,https://v.cdnlz17.com/20231014/29601_38fd1681/2000k/hls/mixed.m3u8
热浪,https://vip.ffzy-play6.com/20221128/9093_98379ddc/3000k/hls/mixed.m3u8
爱的小屋,https://yzzy.play-cdn8.com/20220706/1525_f4ab1a3c/1000k/hls/index.m3u8
小姨怀春,https://vip.ffzy-play6.com/20221128/9211_881ba3e2/3000k/hls/mixed.m3u8
午夜兰花,https://v.cdnlz17.com/20231005/28304_4580e79a/2000k/hls/mixed.m3u8
七只狐狸,https://vip.ffzy-play6.com/20221117/7433_03cf2e94/3000k/hls/mixed.m3u8
金盏花,https://vip.ffzy-play6.com/20221116/7249_0db8982b/3000k/hls/mixed.m3u8
我们的那时·此刻,https://vip.ffzy-play7.com/20230422/22710_c553fdb8/2000k/hls/mixed.m3u8


▶️┃张曼玉,#genre#
青蛇,https://vip.ffzy-play7.com/20221129/7682_4b332ba7/2000k/hls/mixed.m3u8
旺角卡门,https://vip.ffzy-play1.com/20221018/469_ab458c38/2000k/hls/mixed.m3u8
阮玲玉,https://vip.ffzy-play7.com/20221112/3683_1a5e9dde/2000k/hls/mixed.m3u8
东邪西毒：终极版,https://vip.ffzy-play7.com/20221126/7187_ef433999/2000k/hls/mixed.m3u8
警察故事3：超级警察,https://vip.ffzy-play7.com/20221206/8266_97359a93/2000k/hls/mixed.m3u8
警察故事续集,https://vip.ffzy-play7.com/20221115/4687_1e3f6f8c/2000k/hls/mixed.m3u8
A计划续集,https://vip.ffzy-play7.com/20221115/4412_bf4bdaf6/2000k/hls/mixed.m3u8
开心鬼,https://vip.ffzy-play7.com/20221208/8854_e76bd19a/2000k/hls/mixed.m3u8
开心鬼撞鬼,https://vip.ffzy-play7.com/20221115/4693_8223265e/2000k/hls/mixed.m3u8
射雕英雄传之东成西就,https://vip.ffzy-play.com/20221018/2016_4525364a/2000k/hls/mixed.m3u8
滚滚红尘,https://vip.ffzy-play7.com/20230211/14303_cada8f87/2000k/hls/mixed.m3u8
客途秋恨,https://vip.ffzy-play7.com/20221112/3516_157e35bb/2000k/hls/mixed.m3u8
玫瑰的故事,https://yzzy1.play-cdn20.com/20231108/3997_ef0c96b7/2000k/hls/index.m3u8
2046,https://vip.ffzy-play7.com/20221126/7051_2bcc22e4/2000k/hls/mixed.m3u8
家有喜事,https://vip.ffzy-play7.com/20230119/11973_56be0dae/2000k/hls/mixed.m3u8
流金岁月,https://vip.ffzy-play7.com/20230415/22306_44b9d498/2000k/hls/mixed.m3u8
原振侠与卫斯理,https://vip.ffzy-play7.com/20221117/5104_4c1fa953/2000k/hls/mixed.m3u8
济公,https://vip.ffzy-play7.com/20230201/12988_7e8795e3/2000k/hls/mixed.m3u8
豪门夜宴,https://vip.ffzy-play.com/20221204/29458_3909f6d0/2000k/hls/mixed.m3u8
战神传说,https://vip.ffzy-play7.com/20221129/7734_53205031/2000k/hls/mixed.m3u8
心跳一百,https://yzzy.play-cdn4.com/20220609/17985_50e81896/1000k/hls/index.m3u8
赤脚小子,https://vip.ffzy-play7.com/20221228/10082_0a921549/2000k/hls/mixed.m3u8
月亮星星太阳,https://vip.ffzy-play7.com/20221117/5105_7263d457/2000k/hls/mixed.m3u8
武侠七公主,https://vip.ffzy-play7.com/20230423/22946_f55e7919/2000k/hls/mixed.m3u8
红场飞龙,https://vip.ffzy-play7.com/20221129/7652_019cf0cd/2000k/hls/mixed.m3u8
摩登仙履奇缘,https://vip.ffzy-play7.com/20221207/8422_12fd5f29/2000k/hls/mixed.m3u8
神勇双妹唛,https://vip.ffzy-play7.com/20221207/8454_08f43a7a/2000k/hls/mixed.m3u8
天赐良缘,https://yzzy.play-cdn3.com/20220517/24275_64b51ffe/1000k/hls/index.m3u8
神经刀与飞天猫,https://yzzy.play-cdn19.com/20240315/23527_560606ed/2000k/hls/mixed.m3u8
廉政第一击,https://vip.ffzy-play7.com/20221227/10057_21e4d563/2000k/hls/mixed.m3u8
过埠新娘,https://vip.ffzy-play7.com/20221207/8367_8b01519b/2000k/hls/mixed.m3u8
千面天王,https://v.cdnlz3.com/20240203/22968_e2b27c0e/2000k/hls/mixed.m3u8
中国匣,https://v.cdnlz12.com/20230903/9821_1ebbe82f/2000k/hls/mixed.m3u8
不脱袜的人,https://vip.ffzy-play7.com/20221117/4980_3206d70b/2000k/hls/mixed.m3u8
南北妈打,https://yzzy.play-cdn2.com/20220428/16622_606ede4b/1000k/hls/index.m3u8
再见王老五,https://vip.ffzy-play7.com/20221115/4821_f4c55cb2/2000k/hls/mixed.m3u8

▶️┃沈殿霞,#genre#
富贵再三逼人,https://c1.rrcdnbf2.com/video/fuguizaisanbiren/HD%E5%9B%BD%E8%AF%AD/index.m3u8
富贵开心鬼,https://c1.rrcdnbf3.com/video/fuguikaixingui/HD%E5%9B%BD%E8%AF%AD/index.m3u8
富贵逼人,https://c1.rrcdnbf1.com/video/fuguibiren/HD%E5%9B%BD%E8%AF%AD/index.m3u8
双肥临门,https://c1.rrcdnbf1.com/video/shuangfeilinmen/HD%E5%9B%BD%E8%AF%AD/index.m3u8
富贵黄金屋,https://c1.rrcdnbf2.com/video/fuguihuangjinwu/HD%E5%9B%BD%E8%AF%AD/index.m3u8
富贵吉祥,https://c1.rrcdnbf1.com/video/fuguijixiang/HD%E5%9B%BD%E8%AF%AD/index.m3u8
最佳女婿,https://c1.rrcdnbf2.com/video/zuijianvxu/HD%E5%9B%BD%E8%AF%AD/index.m3u8
豪门夜宴,https://c1.rrcdnbf2.com/video/haomenyeyan/DVD%E5%9B%BD%E8%AF%AD/index.m3u8
美男子,https://c1.rrcdnbf3.com/video/meinanzi/HD%E5%9B%BD%E8%AF%AD/index.m3u8
宝莲灯,https://c1.rrcdnbf3.com/video/baoliandeng/HD%E4%B8%AD%E5%AD%97/index.m3u8
裤甲天下,https://c1.rrcdnbf2.com/video/kujiatianxia/HD%E5%9B%BD%E8%AF%AD/index.m3u8
花飞满城春,https://c1.rrcdnbf2.com/video/huafeimanchengchun/HD%E5%9B%BD%E8%AF%AD/index.m3u8
水浒笑传,https://c1.rrcdnbf2.com/video/shuihuxiaochuan/HD%E5%9B%BD%E8%AF%AD/index.m3u8
富贵列车,https://c1.rrcdnbf3.com/video/fuguilieche/HD%E5%9B%BD%E8%AF%AD/index.m3u8
艳阳天,https://c1.rrcdnbf1.com/video/yanyangtian/HD%E5%9B%BD%E8%AF%AD/index.m3u8
外来媳妇本地郎,https://c1.rrcdnbf2.com/video/wailaixifubendilang2004/HD%E5%9B%BD%E8%AF%AD/index.m3u8
北地虎,https://c1.rrcdnbf2.com/video/beidihu/HD%E5%9B%BD%E8%AF%AD/index.m3u8
南北妈打,https://yzzy.play-cdn2.com/20220428/16622_606ede4b/1000k/hls/index.m3u8
花魁杜十娘,https://c1.rrcdnbf1.com/video/huakuidushiniang/HD%E5%9B%BD%E8%AF%AD/index.m3u8
快乐年华,https://c1.rrcdnbf2.com/video/kuailenianhua/HD%E5%9B%BD%E8%AF%AD/index.m3u8
给我一个吻,https://c1.rrcdnbf2.com/video/geiwoyigewen/HD%E5%9B%BD%E8%AF%AD/index.m3u8
小武士,https://c1.rrcdnbf2.com/video/xiaowushi/HD%E5%9B%BD%E8%AF%AD/index.m3u8
笑太极,https://c1.rrcdnbf3.com/video/xiaotaiji/HD%E5%9B%BD%E8%AF%AD/index.m3u8
小姐不在家,https://c1.rrcdnbf2.com/video/xiaojiebuzaijia/HD%E5%9B%BD%E8%AF%AD/index.m3u8
喜气逼人,https://c1.rrcdnbf1.com/video/xiqibiren/HD%E5%9B%BD%E8%AF%AD/index.m3u8
红肚兜,https://c1.rrcdnbf6.com/video/hongdudou/HD/index.m3u8
女黑侠威震地狱门,https://vip1.lz-cdn7.com/20230515/16006_c1666762/2000k/hls/mixed.m3u8
工厂三小姐,https://vip1.lz-cdn7.com/20230512/15934_af163df5/2000k/hls/mixed.m3u8
再见王老五,https://c1.rrcdnbf1.com/video/zaijianwanglaowu/HD%E5%9B%BD%E8%AF%AD/index.m3u8

▶️┃吴孟达,#genre#
少林足球,https://vip.ffzy-online.com/20221231/43324_eb34f45e/2000k/hls/index.m3u8
流浪地球,https://vip.ffzy-play.com/20221017/1736_ff8acb44/2000k/hls/mixed.m3u8
食神,https://vip.ffzy-play7.com/20230101/10759_e65c8db5/2000k/hls/mixed.m3u8
天若有情,https://vip.ffzy-play6.com/20221112/6134_724795e1/2000k/hls/mixed.m3u8
喜剧之王,https://vip.ffzy-play1.com/20221128/25293_87ddc4f8/2000k/hls/mixed.m3u8
赌侠,https://vip.ffzy-online.com/20221017/869_4ed0959f/2000k/hls/mixed.m3u8
赌圣,https://vip.ffzy-play7.com/20230118/11963_d17bc05a/2000k/hls/mixed.m3u8
破坏之王,https://vip.ffzy-play7.com/20230201/13013_3bb9dc38/2000k/hls/mixed.m3u8
逃学威龙,https://vip.ffzy-play6.com/20221112/6100_11ed1d90/2000k/hls/mixed.m3u8
英雄本色2,https://vip.ffzy-play7.com/20221115/4808_81999f35/2000k/hls/mixed.m3u8
窃听风云3,https://vip.ffzy-play6.com/20221028/2430_ccb03cad/2000k/hls/mixed.m3u8
五亿探长雷洛传,https://vip.ffzy-play7.com/20221208/8949_c71cec39/2000k/hls/mixed.m3u8
五亿探长雷洛传1：雷老虎,https://vip.ffzy-online.com/20221015/672_cd3f2629/5000k/hls/mixed.m3u8
五亿探长雷洛传2：父子情仇,https://vip.ffzy-online.com/20221015/676_0dc45896/5000k/hls/mixed.m3u8
大话西游之大圣娶亲,https://vip.ffzy-play7.com/20221112/3799_ea828817/2000k/hls/mixed.m3u8
大话西游之月光宝盒,https://vip.kuaikan-cdn3.com/20230401/CHavtrpM/index.m3u8
大话西游：缘起,https://vip.ffzy-play7.com/20221117/5348_6211c958/2000k/hls/mixed.m3u8
赌侠2：上海滩赌圣,https://vip.ffzy-online.com/20221017/870_24fd00ae/2000k/hls/mixed.m3u8
扫黑行动,https://vip.ffzy-play5.com/20221223/4516_35d91fad/2000k/hls/mixed.m3u8
瓦舍秘闻,https://vip.kuaikan-play1.com/20230308/MTuQRl0e/index.m3u8
真假美猴王之大圣无双,https://vip.ffzy-play.com/20221015/1056_1c9f260d/5000k/hls/mixed.m3u8
少林寺之得宝传奇,https://vip.ffzy-play.com/20221018/2008_ff32d2ea/2000k/hls/mixed.m3u8
长安伏妖,https://vip.ffzy-play7.com/20221117/5445_1f7acb4f/2000k/hls/mixed.m3u8
糟糕的拳头,https://vip.ffzy-play7.com/20230118/11941_be812952/2000k/hls/mixed.m3u8
大片,https://vip.ffzy-play6.com/20221022/711_90c1ca9a/2000k/hls/mixed.m3u8
鹿鼎记,https://vip.ffzy-online2.com/20230403/30732_157cb8d7/2000k/hls/mixed.m3u8
人间·小团圆,https://vip.ffzy-play6.com/20221028/2436_4b17979f/2000k/hls/mixed.m3u8
赌圣2：街头赌圣,https://vip.ffzy-play6.com/20221112/6222_80647718/2000k/hls/mixed.m3u8
九品芝麻官,https://vip.ffzy-play6.com/20221205/9996_68ad8079/2000k/hls/mixed.m3u8
一本漫画闯天涯II妙想天开,https://vip.ffzy-play6.com/20221113/6781_04f30737/2000k/hls/mixed.m3u8
伦文叙老点柳先开,https://vip.ffzy-play7.com/20221112/3573_b150c48c/2000k/hls/mixed.m3u8
我愿意,https://vip.ffzy-play7.com/20230201/13038_6a9070f5/2000k/hls/mixed.m3u8
武状元苏乞儿,https://vip.ffzy-play7.com/20221112/3309_a8fac958/2000k/hls/mixed.m3u8
济公,https://vip.ffzy-play7.com/20230201/12988_7e8795e3/2000k/hls/mixed.m3u8
小飞侠,https://vip.ffzy-play7.com/20221112/3324_f163f25e/2000k/hls/mixed.m3u8
大灌篮,https://vip.ffzy-play7.com/20221126/7157_28f968a6/2000k/hls/mixed.m3u8
飞虎精英之人间有情,https://vip.ffzy-play6.com/20221112/6246_37b3607d/2000k/hls/mixed.m3u8
逃学英雄传,https://vip.ffzy-play7.com/20221209/9162_6cf398aa/2000k/hls/mixed.m3u8
特警屠龙,https://vip.ffzy-play6.com/20221116/7292_c23a0c6c/2000k/hls/mixed.m3u8
豪门夜宴,https://vip.ffzy-play.com/20221204/29458_3909f6d0/2000k/hls/mixed.m3u8
异域之末路英雄,https://vip.lz-cdn6.com/20220810/21432_a5a7236f/1000k/hls/mixed.m3u8
真的爱你I,https://vip.ffzy-play6.com/20221207/10716_05fb1f24/2000k/hls/mixed.m3u8
真的爱你II,https://vip.ffzy-play6.com/20221207/10714_8f284e68/2000k/hls/mixed.m3u8
大人物,https://vip.ffzy-play7.com/20230129/12665_f08921bf/2000k/hls/mixed.m3u8
黑狱断肠歌之砌生猪肉,https://vip.lz-cdn1.com/20220522/6324_65bff9c0/1200k/hls/mixed.m3u8
非洲和尚,https://vip.ffzy-play6.com/20221129/9317_8c6065f3/2000k/hls/mixed.m3u8
明月照尖东,https://vip.ffzy-play7.com/20221112/3611_2b854bb0/2000k/hls/mixed.m3u8
龙虎戏凤,https://vip.ffzy-play7.com/20221112/3560_5a6e5263/2000k/hls/mixed.m3u8
龙在江湖,https://vip.lz-cdn1.com/20220404/941_24824fa0/1200k/hls/mixed.m3u8
阿郎的故事,https://vip.ffzy-play6.com/20221116/7213_5f9198b2/2000k/hls/mixed.m3u8
芝士火腿,https://vip.ffzy-play6.com/20221113/6820_edb7dd0d/2000k/hls/mixed.m3u8
无敌反斗星,https://vip.ffzy-play7.com/20230119/12012_a77a09fc/2000k/hls/mixed.m3u8
的士判官,https://vip.lz-cdn6.com/20220904/26225_1db67362/1000k/hls/mixed.m3u8
审死官,https://vip.kuaikan-play1.com/20230308/ICEhFBxg/index.m3u8
新乌龙院之笑闹江湖,https://vip.ffzy-play6.com/20221124/8085_de115cd2/2000k/hls/mixed.m3u8
与龙共舞,https://vip.ffzy-play6.com/20221207/10859_1b02d27c/2000k/hls/mixed.m3u8
一代枭雄之三支旗,https://vip.ffzy-play6.com/20221207/10854_db2ebb4b/2000k/hls/mixed.m3u8
百变星君,https://vip.ffzy-play7.com/20221112/3731_5103fb79/2000k/hls/mixed.m3u8
绝代双骄,https://vip.ffzy-play6.com/20221129/9355_e351af0a/2000k/hls/mixed.m3u8
花田喜事,https://vip.ffzy-play7.com/20221208/8674_b7b724a4/2000k/hls/mixed.m3u8
古惑仔情义篇之洪兴十三妹,https://vip.ffzy-play7.com/20230305/17054_b9bec023/2000k/hls/mixed.m3u8
飞女正传,https://vip.ffzy-play7.com/20221113/4102_e33b4c49/2000k/hls/mixed.m3u8
龙凤茶楼,https://vip.ffzy-play7.com/20221112/3558_52f2fe98/2000k/hls/mixed.m3u8
大话西游之月光宝盒,https://vip.ffzy-play6.com/20221129/9307_cfa85123/2000k/hls/mixed.m3u8
笑林小子II之新乌龙院,https://vip.ffzy-play7.com/20230117/11874_2c271537/2000k/hls/mixed.m3u8
灯笼,https://vip.ffzy-play7.com/20230507/24188_866f98e2/2000k/hls/mixed.m3u8
给野兽献花,https://vip.ffzy-play6.com/20221024/1772_56ae4850/2000k/hls/mixed.m3u8
水浒笑传,https://vip.ffzy-play6.com/20221112/6075_7f841852/2000k/hls/mixed.m3u8
与妻书,https://vip.ffzy-play6.com/20221024/1622_e0ca9b5f/2000k/hls/mixed.m3u8
庙街十二少,https://vip.kuaikan-play1.com/20230308/1hz6oi6c/2006kb/hls/index.m3u8
赢钱专家,https://vip.ffzy-play6.com/20221113/6794_d514b390/2000k/hls/mixed.m3u8
五亿探长雷洛传2：父子情仇,https://vip.ffzy-online.com/20221015/676_0dc45896/5000k/hls/mixed.m3u8
万妖国,https://s6.bfzycdn.com/video/wanyaoguo/HD/index.m3u8
爱的世界,https://vip.ffzy-play7.com/20230409/21720_88b19912/2000k/hls/mixed.m3u8
江湖最后一个大佬,https://vip.ffzy-play6.com/20221129/9343_6a1bd395/2000k/hls/mixed.m3u8
一品爵爷,https://vip.ffzy-play2.com/20221119/754_ec5140c4/2500k/hls/mixed.m3u8
带子洪郎,https://vip.ffzy-play7.com/20221113/3878_5be04360/2000k/hls/mixed.m3u8
情迷大话王,https://vip.ffzy-play6.com/20221108/4955_932ff177/2000k/hls/mixed.m3u8
停不了的爱,https://vip.ffzy-play6.com/20221108/5004_eb04e304/2000k/hls/mixed.m3u8

▶️周星驰,#genre#
食神,https://vip.ffzy-play7.com/20230101/10759_e65c8db5/2000k/hls/mixed.m3u8
喜剧之王,https://vip.ffzy-play1.com/20221128/25292_30a89f19/2000k/hls/mixed.m3u8
赌圣,https://vip.ffzy-play7.com/20230118/11963_d17bc05a/2000k/hls/mixed.m3u8
情圣,https://vip.ffzy-online2.com/20230403/30720_15bd82f8/2000k/hls/mixed.m3u8
鹿鼎记,https://vip.ffzy-online2.com/20230403/30732_157cb8d7/2000k/hls/mixed.m3u8
鹿鼎记II神龙教,https://vip.ffzy-play7.com/20230101/10739_492582b8/2000k/hls/mixed.m3u8
大话西游之大圣娶亲,https://vip.ffzy-play7.com/20221112/3798_762e3474/2000k/hls/mixed.m3u8
赌侠II上海滩赌圣,https://vip.ffzy-online.com/20221017/870_24fd00ae/2000k/hls/mixed.m3u8
西游·伏妖篇,https://vip.ffzy-play7.com/20230112/11062_1c32df80/2000k/hls/mixed.m3u8
西游·降魔篇,https://vip.lz-cdn1.com/20220420/2633_ea2347fd/1200k/hls/mixed.m3u8
一本漫画闯天涯,https://vip.ffzy-play7.com/20221207/8512_5f33d09a/2000k/hls/mixed.m3u8
新喜剧之王,https://vip.ffzy-play7.com/20221203/7782_d193a45c/2000k/hls/mixed.m3u8
回魂夜,https://vip.ffzy-online2.com/20230403/30714_a34010ca/2000k/hls/mixed.m3u8
赌侠,https://vip.ffzy-online.com/20221017/869_4ed0959f/2000k/hls/mixed.m3u8
豪门夜宴,https://vip.ffzy-play.com/20221204/29458_3909f6d0/2000k/hls/mixed.m3u8
破坏之王,https://vip.ffzy-play7.com/20230201/13013_3bb9dc38/2000k/hls/mixed.m3u8
武状元苏乞儿,https://vip.ffzy-play7.com/20221112/3309_a8fac958/2000k/hls/mixed.m3u8
龙的传人,https://vip.ffzy-play7.com/20221112/3556_7788de32/2000k/hls/mixed.m3u8
大内密探零零发,https://vip.ffzy-play7.com/20221112/3800_25334502/2000k/hls/mixed.m3u8
风雨同路,https://vip.ffzy-play7.com/20221113/3898_b5a0aca9/2000k/hls/mixed.m3u8
漫画威龙,https://vip.ffzy-play.com/20221204/29460_10c83a7c/2000k/hls/mixed.m3u8
豪门夜宴,https://vip.ffzy-play.com/20221204/29458_3909f6d0/2000k/hls/mixed.m3u8
审死官,https://vip.ffzy-online2.com/20230403/30717_2bdf7daf/2000k/hls/mixed.m3u8
百变星君,https://vip.ffzy-play7.com/20221112/3731_5103fb79/2000k/hls/mixed.m3u8
龙凤茶楼,https://vip.ffzy-play7.com/20221112/3557_5920cbaf/2000k/hls/mixed.m3u8
霹雳先锋,https://yzzy.play-cdn2.com/20220331/4877_07bb9185/1000k/hls/index.m3u8
群星会,https://vip.ffzy-online1.com/20230612/41218_c203f882/2000k/hls/mixed.m3u8
赌霸,https://vip.ffzy-play7.com/20221209/9045_b3cb4c1c/2000k/hls/mixed.m3u8
整蛊专家,https://vip.ffzy-play7.com/20221112/3437_04b12f17/2000k/hls/mixed.m3u8
最佳女婿,https://vip.ffzy-play7.com/20221116/4841_04abf22a/2000k/hls/mixed.m3u8
捕风汉子,https://vip.ffzy-online2.com/20230403/30729_d1b17aa5/2000k/hls/mixed.m3u8

▶️┃吴京,#genre#
流浪地球,https://vip.ffzy-play.com/20221017/1736_ff8acb44/2000k/hls/mixed.m3u8
流浪地球2,https://vip.ffzy-online2.com/20230416/32868_9cb1983d/2000k/hls/mixed.m3u8
长津湖,https://txmov2.a.kwimgs.com/upic/2023/02/09/15/BMjAyMzAyMDkxNTI3MzVfNzM5MzQzNzIyXzk1ODE4NzEwMTYyXzBfMw==_b_B3bb6c8dfbd37a08e42d1fe1890930b1e.mp4
长津湖,https://c1.rrcdnbf1.com/video/changjinhu/HD%E5%9B%BD%E8%AF%AD/index.m3u8
长津湖之水门桥,https://txmov2.a.kwimgs.com/bs3/video-hls/5237686448215685150_hlshd15.m3u8
长津湖之水门桥,https://vip.ffzy-play7.com/20221125/7026_1ecb0db7/2000k/hls/mixed.m3u8
龙马精神,https://vip.lz-cdn3.com/20230601/19230_cc788705/2000k/hls/mixed.m3u8
战狼,https://c1.rrcdnbf2.com/video/zhanlang/HD%E5%9B%BD%E8%AF%AD/index.m3u8
战狼II,https://c1.rrcdnbf2.com/video/zhanlang2/HD%E5%9B%BD%E8%AF%AD/index.m3u8
杀破狼,https://vip.ffzy-play.com/20221018/1977_3ef7fe7e/2000k/hls/mixed.m3u8
杀破狼2,https://vip.ffzy-play7.com/20221124/6746_246ce5ec/2000k/hls/mixed.m3u8
夺帅,https://c1.rrcdnbf1.com/video/duoshuai/HD%E5%9B%BD%E8%AF%AD/index.m3u8
男儿本色,https://vod.lyhuicheng.com/20231209/tNUwwGjV/hls/index.m3u8
狼牙,https://c1.rrcdnbf1.com/video/langya/HD%E5%9B%BD%E8%AF%AD/index.m3u8
巨齿鲨2深渊,https://vip.lz-cdn3.com/20230825/21318_ed12a4ac/2000k/hls/mixed.m3u8
我和我的祖国https://vip.ffzy-play1.com/20221018/512_4544d0ed/2000k/hls/mixed.m3u8
我和我的父辈,https://vip.ffzy-play7.com/20230307/17542_0c58cae5/2000k/hls/mixed.m3u8
金刚川,https://vip.lz-cdn1.com/20220509/4941_1d399fb0/1200k/hls/mixed.m3u8
大话西游3,https://vip.ffzy-play2.com/20221124/1256_17ac3ecd/2000k/hls/mixed.m3u8
攀登者,https://vip.ffzy-play7.com/20221111/3124_7cca31fc/2000k/hls/mixed.m3u8
醉马骝,https://vip.lz-cdn1.com/20220411/1740_b85cb5fb/1200k/hls/mixed.m3u8
祖宗十九代,https://vip.ffzy-play.com/20221015/1136_c64101c0/2000k/hls/mixed.m3u8
西风烈,https://c1.rrcdnbf1.com/video/xifenglie/HD%E5%9B%BD%E8%AF%AD/index.m3u8
危城,https://vip.ffzy-play7.com/20221106/1952_cf983186/2000k/hls/mixed.m3u8
一百零八,https://vip.ffzy-play7.com/20221118/5714_0fec7a2b/2000k/hls/mixed.m3u8
功守道,https://c1.rrcdnbf2.com/video/gongshoudao/HD%E5%9B%BD%E8%AF%AD/index.m3u8
蜀山传,https://c1.rrcdnbf1.com/video/shushanchuan/HD%E5%9B%BD%E8%AF%AD/index.m3u8
全城戒备,https://c1.rrcdnbf2.com/video/quanchengjiebei/HD%E5%9B%BD%E8%AF%AD/index.m3u8
双子神偷,https://c1.rrcdnbf2.com/video/shuangzishentou/HD%E5%9B%BD%E8%AF%AD/index.m3u8
开心魔法,https://c1.rrcdnbf1.com/video/kaixinmofa/HD%E5%9B%BD%E8%AF%AD/index.m3u8
机器侠,https://c1.rrcdnbf1.com/video/jiqixia/HD%E5%9B%BD%E8%AF%AD/index.m3u8
木乃伊3,https://c1.rrcdnbf1.com/video/munaiyi3/HD%E5%9B%BD%E8%AF%AD/index.m3u8
功夫小子闯情关,https://vip.ffzy-play7.com/20221228/10094_3e5fa330/2000k/hls/mixed.m3u8
新少林寺,https://c1.rrcdnbf1.com/video/xinshaolinsi/HD%E5%9B%BD%E8%AF%AD/index.m3u8
分手大师,https://c1.rrcdnbf6.com/video/fenshoudashi/HD%E5%9B%BD%E8%AF%AD/index.m3u8

▶️┃古天乐,#genre#
九龙城寨之围城,https://svipsvip.ffzy-online5.com/20240621/28901_46307ada/3000k/hls/mixed.m3u8
杀破狼·贪狼,https://vip.ffzy-play.com/20221018/1978_1c69325c/2000k/hls/mixed.m3u8
门徒,https://vip.ffzy-play.com/20221017/1787_03664048/2000k/hls/mixed.m3u8
明日战记,https://vip.ffzy-play5.com/20221204/3452_7ab60ee9/2000k/hls/mixed.m3u8
倚天屠龙记之九阳神功,https://vip.ffzy-play.com/20221015/964_2b9df10c/2000k/hls/mixed.m3u8
反贪风暴5 最终章,https://vip.ffzy-online.com/20221017/896_8c68c4bf/2000k/hls/mixed.m3u8
追虎擒龙,https://vip.ffzy-play.com/20221015/1128_348af1a3/2000k/hls/mixed.m3u8
不倒侠,https://vip.ffzy-online1.com/20230701/42012_766d16b4/2000k/hls/mixed.m3u8
真·三国无双,https://vip.ffzy-play.com/20221015/1054_083f8631/2000k/hls/mixed.m3u8
最强囍事,https://vip.ffzy-play7.com/20230101/10792_4983fd79/2000k/hls/mixed.m3u8
阴阳路,https://vip.ffzy-play7.com/20221112/3394_e69765a7/2000k/hls/mixed.m3u8
金鸡SSS,https://vip.ffzy-play7.com/20221231/10629_088e8cb8/2000k/hls/mixed.m3u8
武林怪兽,https://vip.ffzy-online.com/20221015/693_8bd5fb9b/2000k/hls/mixed.m3u8
谜城,https://vip.ffzy-play.com/20221017/1802_a87793fc/2000k/hls/mixed.m3u8
暗杀风暴,https://super.ffzy-online6.com/20230914/18571_b5ba7947/2000k/hls/mixed.m3u8
龙在边缘,https://vip.ffzy-play.com/20221017/1754_95490c99/2000k/hls/mixed.m3u8
危城,https://vip.ffzy-play7.com/20221106/1952_cf983186/2000k/hls/mixed.m3u8
喵星人,https://vip.ffzy-play.com/20221017/1812_778bc51f/2000k/hls/mixed.m3u8
阴阳路5一见发财,https://vip.ffzy-play7.com/20221209/9207_53b60760/2000k/hls/mixed.m3u8
神探驾到,https://vip.ffzy-play7.com/20221103/1281_5f708f70/2000k/hls/mixed.m3u8
监狱风云之少年犯,https://yzzy.play-cdn17.com/20230622/9653_910b94b9/2000k/hls/index.m3u8
反贪风暴,https://vip.ffzy-play7.com/20221028/466_6e302f87/2000k/hls/mixed.m3u8
铁三角,https://vip.ffzy-online2.com/20230409/32040_d919f74f/2000k/hls/mixed.m3u8
高海拔之恋2,https://vip.ffzy-play7.com/20221205/7906_6c477265/2000k/hls/mixed.m3u8
男儿当入樽,https://vip.ffzy-play7.com/20221112/3624_0b013738/2000k/hls/mixed.m3u8
巴黎假期,https://vip.ffzy-play7.com/20221103/1080_fc674a43/2000k/hls/mixed.m3u8
把乐带回家2014,https://vip.ffzy-play7.com/20230530/25437_6e414488/2000k/hls/mixed.m3u8
甜言蜜语,https://vip.ffzy-play7.com/20230326/19753_c5787be7/2000k/hls/mixed.m3u8
一个好爸爸,https://vip.ffzy-play2.com/20221127/1620_980b389a/2000k/hls/mixed.m3u8
极度重犯,https://vip.ffzy-play7.com/20221229/10328_6653c035/2000k/hls/mixed.m3u8
当男人变成女人,https://vip.ffzy-play7.com/20221126/7171_0454943d/2000k/hls/mixed.m3u8
脱皮爸爸,https://vip.ffzy-play7.com/20221106/1936_1bb0ddf1/2000k/hls/mixed.m3u8

▶️┃洪金宝,#genre#
九龙城寨之围城,https://svipsvip.ffzy-online5.com/20240621/28901_46307ada/3000k/hls/mixed.m3u8
东方秃鹰,https://vip.ffzy-play7.com/20221209/9044_d3e0dbd4/2000k/hls/mixed.m3u8
王牌替身,https://super.ffzy-online6.com/20230526/12448_af49c23a/2000k/hls/mixed.m3u8
大侠胡金铨,https://vip.ffzy-play7.com/20230503/23773_a16c59d6/2000k/hls/mixed.m3u8
败家仔,https://vip.ffzy-play7.com/20221207/8332_71c25e63/2000k/hls/mixed.m3u8
叶问2：宗师传奇,https://vip.ffzy-play2.com/20221127/1618_b175df0e/2000k/hls/mixed.m3u8
杀破狼,https://vip.ffzy-play.com/20221018/1977_3ef7fe7e/2000k/hls/mixed.m3u8
倚天屠龙记之魔教教主,https://vip.ffzy-online1.com/20230622/41615_05003dd5/2000k/hls/mixed.m3u8
锦衣卫,https://vip.ffzy-online2.com/20230531/38608_ad0ee149/2000k/hls/mixed.m3u8
花飞满城春,https://vip.ffzy-play7.com/20221128/7557_3a9a605d/2000k/hls/mixed.m3u8
A计划,https://vip.ffzy-play7.com/20221115/4631_7c6bb09a/2000k/hls/mixed.m3u8
战神传说,https://vip.ffzy-play7.com/20221129/7734_53205031/2000k/hls/mixed.m3u8
夏日福星,https://vip.ffzy-play7.com/20230118/11937_84244e52/2000k/hls/mixed.m3u8
群龙戏凤,+https://vip.ffzy-play7.com/20230423/22931_b2b1c621/2000k/hls/mixed.m3u8
老虎田鸡,https://vip.ffzy-play7.com/20221224/9583_f95a6383/2000k/hls/mixed.m3u8
提防小手,https://vip.ffzy-play7.com/20221209/9164_1db5b92a/2000k/hls/mixed.m3u8
运财五福星,https://vip.ffzy-play7.com/20221208/8988_21580eb4/2000k/hls/mixed.m3u8
豪门夜宴,https://vip.ffzy-play.com/20221204/29458_3909f6d0/2000k/hls/mixed.m3u8
蜀山：新蜀山剑侠,https://vip.ffzy-play7.com/20221115/4566_fdf3285b/2000k/hls/mixed.m3u8
密宗威龙,https://vip.ffzy-play7.com/20221112/3607_e49d9e93/2000k/hls/mixed.m3u8
龙的心,https://vip.ffzy-play7.com/20221115/4539_8b9150f6/2000k/hls/mixed.m3u8
鬼咬鬼,https://vip.ffzy-play7.com/20221208/8822_26a70529/2000k/hls/mixed.m3u8
鬼马双星,https://vip.ffzy-play7.com/20221206/8062_9ab4de18/2000k/hls/mixed.m3u8
金衣大侠,https://vip.ffzy-play7.com/20221128/7587_339701b6/2000k/hls/mixed.m3u8
浪漫风暴,https://vip.ffzy-play7.com/20221129/7668_624e7734/2000k/hls/mixed.m3u8
死亡塔,https://vip.ffzy-play7.com/20221117/5079_56e2cb5b/2000k/hls/mixed.m3u8
飞燕金刀,https://vip.ffzy-play7.com/20221208/8580_cc26d2cb/2000k/hls/mixed.m3u8
黄飞鸿少林拳,https://vip.ffzy-play7.com/20221128/7561_64e57fa4/2000k/hls/mixed.m3u8
黄飞鸿之英雄有梦,https://vip.ffzy-online.com/20221017/1065_6fccd535/2000k/hls/mixed.m3u8
八两金,https://vip.ffzy-play7.com/20230101/10670_06ccd764/2000k/hls/mixed.m3u8
老虎煞星,https://vip.ffzy-play7.com/20221128/7611_ae4536d6/2000k/hls/mixed.m3u8
老豆唔怕多,https://vip.ffzy-play7.com/20221207/8412_115a031f/2000k/hls/mixed.m3u8
武林风云,https://s6.bfzycdn.com/video/wulinfengyun/HD/index.m3u8
奇谋妙计五福星,https://vip.ffzy-play7.com/20221115/4730_a7515224/2000k/hls/mixed.m3u8
快餐车,https://vip.ffzy-play7.com/20221115/4694_6f7f88ac/2000k/hls/mixed.m3u8
灵幻先生,https://vip.ffzy-play7.com/20221115/4538_ddf6020e/2000k/hls/mixed.m3u8
肥龙过江,https://vip.ffzy-online.com/20221017/910_1576b6c4/2000k/hls/mixed.m3u8
猛鬼入侵黑社会,https://v.cdnlz19.com/20240410/26916_a792b2eb/2000k/hls/mixed.m3u8
瘦虎肥龙,https://vip.ffzy-play7.com/20230119/11999_b647b4d4/2000k/hls/mixed.m3u8
恶战,https://vip.ffzy-play7.com/20221028/461_a812e9e0/2000k/hls/mixed.m3u8
无面俾,https://vip.ffzy-play7.com/20230422/22713_000cbfc7/2000k/hls/mixed.m3u8
林世荣,https://vip.ffzy-play7.com/20221209/9096_70ae66c7/2000k/hls/mixed.m3u8
富贵列车,https://vip.ffzy-play7.com/20221206/8232_7462fce8/2000k/hls/mixed.m3u8
大千世界,https://vip.ffzy-play7.com/20221208/8558_afd6760b/2000k/hls/mixed.m3u8
洪福齐天,https://v.cdnlz19.com/20240215/15960_03ecf134/2000k/hls/mixed.m3u8
李小龙的生与死,https://vip.ffzy-play7.com/20221128/7616_58d018a9/2000k/hls/mixed.m3u8
我的特工爷爷,https://vip.ffzy-play7.com/20221106/1991_83a8af20/2000k/hls/mixed.m3u8
阿金,https://vip.ffzy-play7.com/20230510/24405_1c0593ea/2000k/hls/mixed.m3u8
一个好人,https://vip.ffzy-play7.com/20221129/7713_3a3bd3ff/2000k/hls/mixed.m3u8
猛龙,https://vip.ffzy-play7.com/20221224/9706_ae656965/2000k/hls/mixed.m3u8
过埠新娘,https://vip.ffzy-play7.com/20221207/8367_8b01519b/2000k/hls/mixed.m3u8
如珠如宝的人生,https://vip.ffzy-play7.com/20230103/10938_2f52e231/2000k/hls/mixed.m3u8
猫头鹰与小飞象,https://vip.ffzy-play7.com/20221209/9106_020c2718/2000k/hls/mixed.m3u8
标错参,https://vip.ffzy-play7.com/20221115/4423_ec99f147/2000k/hls/mixed.m3u8
直捣黄龙,https://vip.lz-cdn3.com/20230623/19785_d14d1e58/2000k/hls/mixed.m3u8
醒目仔蛊惑招,https://vip.ffzy-play7.com/20221227/10014_ac5cb8a8/2000k/hls/mixed.m3u8
铁掌旋风腿,https://vip.lz-cdn3.com/20230605/19332_398d79b4/2000k/hls/mixed.m3u8
冰天侠女,https://yzzy.play-cdn4.com/20220611/19046_621aa95a/1000k/hls/index.m3u8
合气道,https://yzzy.play-cdn6.com/20220625/1515_8bf6c42a/1000k/hls/index.m3u8
环游地球八十天,https://vip.ffzy-play7.com/20221206/8255_9aa98c99/2000k/hls/mixed.m3u8
忠烈图,https://vip.ffzy-play7.com/20221228/10158_15a3aab7/2000k/hls/mixed.m3u8
鬼流星,https://vip.ffzy-play7.com/20221128/7528_c67067f3/2000k/hls/mixed.m3u8
搏命单刀夺命枪,https://vip.ffzy-play7.com/20221208/8546_fa0622b4/2000k/hls/mixed.m3u8
甩牙老虎,https://vip.ffzy-play7.com/20221231/10559_1f62509a/2000k/hls/mixed.m3u8
无问题,https://yzzy.play-cdn4.com/20220611/19238_1355d3a4/1000k/hls/index.m3u8
鳄潭群英会,https://vip.ffzy-play7.com/20221228/10089_77f8bcef/2000k/hls/mixed.m3u8
没有小鸟的天空,https://vip.ffzy-play7.com/20221113/4138_27357f3c/2000k/hls/mixed.m3u8
铁金刚大破紫阳观,https://v.cdnlz17.com/20231009/28713_5531c328/2000k/hls/mixed.m3u8
金装武术电影大全,https://vip.ffzy-play7.com/20230512/24614_d66a3f5d/2000k/hls/mixed.m3u8


▶️┃郭富城,#genre#
断网,https://vip.ffzy-play5.com/20230331/9556_1493c10d/2000k/hls/mixed.m3u8
秘密访客,https://vip.ffzy-play.com/20221017/1806_53af7beb/2000k/hls/mixed.m3u8
麦路人,https://vip.ffzy-play.com/20221017/1769_f64c061b/2000k/hls/mixed.m3u8
天若有情II之天长地久,https://vip.ffzy-play1.com/20221018/421_79b69264/2000k/hls/mixed.m3u8
踏血寻梅,https://vip.ffzy-play8.com/20221205/882_b0a62cd6/2000k/hls/mixed.m3u8
西游记之孙悟空三打白骨精,https://vip.ffzy-play7.com/20221106/2018_cd7752b3/2000k/hls/mixed.m3u8
天亮之前,https://vip.ffzy-play7.com/20221106/1922_8aa5d0ed/2000k/hls/mixed.m3u8
道士下山,https://vip.ffzy-online.com/20221017/815_a6acfa50/2000k/hls/mixed.m3u8
破·局,https://vip.ffzy-play.com/20221018/1886_a195b37d/2000k/hls/mixed.m3u8
伦文叙老点柳先开,https://vip.ffzy-play7.com/20221112/3573_b150c48c/2000k/hls/mixed.m3u8
赤脚小子,https://vip.ffzy-play7.com/20221228/10082_0a921549/2000k/hls/mixed.m3u8
西游记之大闹天宫,https://yzzy.play-cdn2.com/20220331/4847_d49aa9d1/1000k/hls/index.m3u8
豪门夜宴,https://vip.ffzy-play.com/20221204/29458_3909f6d0/2000k/hls/mixed.m3u8
逃学英雄传,https://vip.ffzy-play7.com/20221209/9162_6cf398aa/2000k/hls/mixed.m3u8
白银帝国,https://vip.ffzy-play7.com/20221126/7081_6d1bfa4e/2000k/hls/mixed.m3u8
伴我纵横,https://vip.ffzy-play7.com/20221126/7087_cafd78d5/2000k/hls/mixed.m3u8
浪漫风暴,https://vip.ffzy-play7.com/20221129/7668_624e7734/2000k/hls/mixed.m3u8
密战,https://vip.ffzy-play.com/20221017/1809_16a167a7/2000k/hls/mixed.m3u8
龙神太子,https://yzzy.play-cdn17.com/20230821/16641_0df5a080/2000k/hls/index.m3u8
C+侦探,https://vip.ffzy-play7.com/20221126/7053_ebda59c5/2000k/hls/mixed.m3u8
小亲亲,https://vip.ffzy-play7.com/20230216/14938_a91b9e71/2000k/hls/mixed.m3u8
西环的故事,https://vip.ffzy-play7.com/20221112/3312_5634eb79/2000k/hls/mixed.m3u8
千面天王,https://v.cdnlz3.com/20240203/22968_e2b27c0e/2000k/hls/mixed.m3u8
同谋,https://vip.ffzy-play7.com/20221026/164_f19562e7/2000k/hls/mixed.m3u8
飞越危墙,https://vip.ffzy-play7.com/20221208/8581_acf1c717/2000k/hls/mixed.m3u8

甄子丹,#genre#
花木兰,https://vip.ffzy-online2.com/20230510/36780_bd590733/2000k/hls/mixed.m3u8
少年黄飞鸿之铁马骝,https://vip.ffzy-play7.com/20221227/9985_e1befb18/2000k/hls/mixed.m3u8
肥龙过江,https://vip.ffzy-online.com/20221017/910_1576b6c4/2000k/hls/mixed.m3u8
追龙,https://vip.ffzy-play7.com/20221104/1464_ed9d6c5d/2000k/hls/mixed.m3u8
笑太极,https://vip.lz-cdn3.com/20221030/15331_a1168026/1200k/hls/mixed.m3u8
热血无赖,https://vip.ffzy-play7.com/20230604/25660_9de9d01f/2000k/hls/mixed.m3u8
杀破狼,https://vip.ffzy-play.com/20221018/1977_3ef7fe7e/2000k/hls/mixed.m3u8
疾速追杀4,https://vip.ffzyread1.com/20230523/12690_48491ef3/2000k/hls/mixed.m3u8
精武风云·陈真,https://vip1.lz-cdn1.com/20221015/17348_87a9f783/1200k/hls/mixed.m3u8
武侠,https://vip1.lz-cdn7.com/20230114/13485_ff35c78f/2000k/hls/mixed.m3u8
天龙八部之乔峰传,https://vip.ffzy-play5.com/20230121/6052_87b1c663/2000k/hls/mixed.m3u8
叶问2：宗师传奇,https://vip.ffzy-play2.com/20221127/1618_b175df0e/2000k/hls/mixed.m3u8
画皮,https://vip.ffzy-play7.com/20221125/6912_637fb874/2000k/hls/mixed.m3u8
咏春,https://v.cdnlz11.com/20231121/18361_1e2e07d7/2000k/hls/mixed.m3u8
冰封：重生之门,https://vip.ffzy-play7.com/20221028/421_aa257ab3/2000k/hls/mixed.m3u8
金鸡SSS,https://vip.ffzy-play7.com/20221231/10629_088e8cb8/2000k/hls/mixed.m3u8
魔唇劫,https://vip.ffzy-play7.com/20221112/3615_57d8bd82/2000k/hls/mixed.m3u8
极限特工3：终极回归,https://vip.ffzy-play7.com/20221227/9949_dfdb5e0f/2000k/hls/mixed.m3u8
怒火威龙,https://vip.ffzy-play7.com/20221112/3632_fc9c93a8/2000k/hls/mixed.m3u8
卧虎藏龙：青冥宝剑,https://vip.ffzy-play7.com/20221124/6802_15d392ab/2000k/hls/mixed.m3u8
666魔鬼复活,https://vip.ffzy-play7.com/20221227/10016_9e0d6f6e/2000k/hls/mixed.m3u8
新流星蝴蝶剑,https://vip.ffzy-play7.com/20230205/13377_4d26288e/2000k/hls/mixed.m3u8
七剑,https://vip.ffzy-play7.com/20221224/9653_4f00a122/2000k/hls/mixed.m3u8
亚洲警察之高压线,https://vip.lz-cdn1.com/20230807/21671_3906db69/2000k/hls/mixed.m3u8
关云长,https://vip.ffzy-play7.com/20221127/7210_4d024aba/2000k/hls/mixed.m3u8
情逢敌手,https://vip.ffzy-play7.com/20221115/4735_3e61b0e3/2000k/hls/mixed.m3u8
星球大战外传：侠盗一号,https://vip.ffzy-play7.com/20230214/14700_5b43cb14/2000k/hls/mixed.m3u8
黑色城市,https://vip.ffzy-play7.com/20221224/9636_d432d303/2000k/hls/mixed.m3u8
战狼传说,https://vip.ffzy-play7.com/20221112/3424_514a5815/2000k/hls/mixed.m3u8
上海正午2：上海骑士,https://vip.ffzy-play7.com/20230131/12903_9b7878c4/2000k/hls/mixed.m3u8
超时空圣战,https://vip.ffzy-play7.com/20221108/2681_16875fdd/2000k/hls/mixed.m3u8
神探驾到,https://vip.ffzy-play7.com/20221103/1282_d9fc0f4d/2000k/hls/mixed.m3u8


曾志伟,#genre#
扫黑行动,https://vip.ffzy-play5.com/20221223/4516_35d91fad/2000k/hls/mixed.m3u8
运财五福星,https://vip.ffzy-play7.com/20221208/8988_21580eb4/2000k/hls/mixed.m3u8
不夜城,https://vip.ffzy-play7.com/20221117/4982_a11714a4/2000k/hls/mixed.m3u8
金枝玉叶,https://vip.ffzy-play7.com/20221209/9079_8a7e68fb/2000k/hls/mixed.m3u8
新上海滩,https://vip.ffzy-play.com/20221015/880_937cdc1a/2000k/hls/mixed.m3u8
大丈夫,https://vip.ffzy-play7.com/20221126/7168_7672508b/2000k/hls/mixed.m3u8
大丈夫II,https://vip.ffzy-play7.com/20221126/7167_edca6595/2000k/hls/mixed.m3u8
出租家人,https://v.cdnlz2.com/20240402/29308_6297b9d3/2000k/hls/mixed.m3u8
全城风暴,https://vip.ffzy-play5.com/20230417/10381_84ff515a/2000k/hls/mixed.m3u8
阳光劫匪,https://vip.ffzy-play.com/20221015/922_67b7b6f7/2000k/hls/mixed.m3u8
紧急营救,https://vip.ffzy-play2.com/20221205/1845_5946245f/2000k/hls/mixed.m3u8
侠盗联盟,https://vip.ffzy-play7.com/20221104/1442_e5eca889/2000k/hls/mixed.m3u8
画壁,https://vip.ffzy-play2.com/20230324/42026_143ef032/2000k/hls/mixed.m3u8
末路狂花,https://vip.ffzy-play2.com/20221129/1723_66fffb66/2000k/hls/mixed.m3u8
豪门夜宴,https://vip.ffzy-play.com/20221204/29458_3909f6d0/2000k/hls/mixed.m3u8
潘金莲之前世今生,https://vip.ffzy-play.com/20221012/111_d693496d/2000k/hls/mixed.m3u8
富贵再三逼人,https://vip.ffzy-play7.com/20221115/4467_32ecd40f/2000k/hls/mixed.m3u8
大灌篮,https://vip.ffzy-play7.com/20221126/7157_28f968a6/2000k/hls/mixed.m3u8
亲密,https://vip.lz-cdn8.com/20220906/26072_b7e5b377/1000k/hls/mixed.m3u8
杀手之王,https://vip.ffzy-play7.com/20230101/10754_72e3a4dc/2000k/hls/mixed.m3u8
卧虎,https://vip.ffzy-play2.com/20221127/1565_ca410043/2000k/hls/mixed.m3u8
精装追女仔2004,https://v.cdnlz11.com/20231128/18458_36420cc2/2000k/hls/mixed.m3u8
捉妖记,https://vip.ffzy-play.com/20221015/1131_43fb73ff/2000k/hls/mixed.m3u8
你咪理 我爱你,https://vip.ffzy-play7.com/20230519/24943_efd56921/2000k/hls/mixed.m3u8
羞羞鬼,https://vip.ffzy-play7.com/20221112/3366_3a1a794c/2000k/hls/mixed.m3u8
金田一少年事件簿香港九龙财宝杀人事件,https://yzzy.play-cdn17.com/20230921/19005_b4c6fe49/2000k/hls/index.m3u8
捉妖记2,https://vip.ffzy-play.com/20221015/1132_e48d9c77/2000k/hls/mixed.m3u8
这就是命,https://vip.ffzy-play.com/20221015/1051_e336c47b/2000k/hls/mixed.m3u8
笑星撞地球,https://vip.ffzy-play7.com/20221207/8501_48c90352/2000k/hls/mixed.m3u8
用爱捉伊人,https://vip.ffzy-play7.com/20221117/5257_824299c8/2000k/hls/mixed.m3u8
早熟,https://vip.ffzy-play2.com/20221127/1653_ecde664c/2000k/hls/mixed.m3u8
花仔多情,https://vip.ffzy-play2.com/20221129/1710_703c3af7/2000k/hls/mixed.m3u8
光辉岁月,https://vip.ffzy-play7.com/20221123/6606_707d51d6/2000k/hls/mixed.m3u8
狐踪谍影,https://vip.ffzy-online.com/20221017/1041_ce37e88c/2000k/hls/mixed.m3u8
笑星撞地球,https://vip.ffzy-play7.com/20221207/8501_48c90352/2000k/hls/mixed.m3u8
破戒大师,https://vip.ffzy-play7.com/20221117/5189_f44f2b8d/2000k/hls/mixed.m3u8
大丈夫2,https://vip.ffzy-play7.com/20221126/7167_edca6595/2000k/hls/mixed.m3u8
功夫瑜伽,https://vip.ffzy-play2.com/20221124/1291_468b2efb/2000k/hls/mixed.m3u8
七年之痒,https://vip.ffzy-online2.com/20230409/32041_7c3ae42f/2000k/hls/mixed.m3u8
记得香蕉成熟时,https://vip.lz-cdn1.com/20220411/1579_f163e610/1200k/hls/mixed.m3u8
我爱夜来香,https://vip.ffzy-play7.com/20221206/8154_d05cbb3e/2000k/hls/mixed.m3u8
富贵列车,https://vip.ffzy-play7.com/20221206/8232_7462fce8/2000k/hls/mixed.m3u8
Laughing Gor之变节,https://vip.ffzy-play7.com/20221223/9358_12f199fb/2000k/hls/mixed.m3u8
奇兵,https://vip.ffzy-play7.com/20221113/4149_e586362b/2000k/hls/mixed.m3u8
福星闯江湖,https://vip.ffzy-play7.com/20221115/4664_844c011e/2000k/hls/mixed.m3u8
东北往事之破马张飞,https://vip.ffzy-play2.com/20221124/1268_814923a2/2000k/hls/mixed.m3u8
我爱HK 开心万岁,https://yzzy.play-cdn4.com/20220608/17598_8a6f1027/1000k/hls/index.m3u8
猛男滚死队,https://vip.lz-cdn3.com/20230604/19304_2fa1dd45/2000k/hls/mixed.m3u8
小生梦惊魂,https://vip.ffzy-play2.com/20221129/1755_b054155e/2000k/hls/mixed.m3u8
一念无明,https://vip.ffzy-play2.com/20221125/1464_83cc77e6/2000k/hls/mixed.m3u8
这个阿爸真爆炸,https://vip.ffzy-play2.com/20221022/433_3be29bdd/2000k/hls/mixed.m3u8
小亲亲,https://vip.ffzy-play7.com/20230216/14938_a91b9e71/2000k/hls/mixed.m3u8
赛车传奇,https://yzzy.play-cdn17.com/20230806/14707_6b4c90df/2000k/hls/index.m3u8
八宝奇兵,https://vip.ffzy-play7.com/20230201/12951_9a84afb6/2000k/hls/mixed.m3u8
初恋滋味,https://vip.ffzy-play7.com/20221127/7205_56aa54a7/2000k/hls/mixed.m3u8
野·良犬,https://vip.ffzy-play7.com/20221207/8511_a1d4bdb5/2000k/hls/mixed.m3u8
黄飞鸿对黄飞鸿,https://vip.ffzy-online.com/20221017/1060_ae0316ad/2000k/hls/mixed.m3u8
叶问：终极一战,https://vip.ffzy-play.com/20221015/939_5ff5bac4/2000k/hls/mixed.m3u8
黄金兄弟,https://vip.ffzy-online.com/20221017/1066_761fcbc4/2000k/hls/mixed.m3u8
神探POWER之问米追凶,https://vip.ffzy-online2.com/20230904/43485_a2e31c1d/2000k/hls/mixed.m3u8
七小罗汉,https://vip.ffzy-play2.com/20221022/324_3ab9666a/2000k/hls/mixed.m3u8
孖宝闯八关,https://vip.lz-cdn3.com/20230709/20138_c96fec93/2000k/hls/mixed.m3u8
麻雀王,https://vip.lz-cdn1.com/20230811/21743_6ebb233a/2000k/hls/mixed.m3u8
废柴同盟,https://vip.ffzy-play7.com/20221118/5491_d5073611/2000k/hls/mixed.m3u8
小小小警察,https://vip.ffzy-play7.com/20230131/12926_ddf93907/2000k/hls/mixed.m3u8
过街老虎,https://yzzy.play-cdn17.com/20230820/16599_b2403945/2000k/hls/index.m3u8
失婚老豆,https://vip.lz-cdn3.com/20230712/20206_241bccc9/2000k/hls/mixed.m3u8
奖门人Ladies First感谢祭,https://vip.lz-cdn5.com/20230417/50107_1f318169/2000k/hls/mixed.m3u8
老少五个半,https://vip.lz-cdn3.com/20230711/20166_d2e21c20/2000k/hls/mixed.m3u8


王宝强,#genre#
八角笼中,https://svipsvip.ffzyread1.com/20230908/18000_41c719d6/2000k/hls/mixed.m3u8
大闹天竺,https://vip.ffzy-play2.com/20221124/1257_5ea571b4/2000k/hls/mixed.m3u8
道士下山,https://vip.ffzy-online.com/20221017/815_a6acfa50/2000k/hls/mixed.m3u8
人在囧途,https://vip.ffzy-play.com/20221018/1953_2d6ba500/2000k/hls/mixed.m3u8
天下无贼,https://vip.ffzy-play6.com/20221018/39_d0036fb2/3000k/hls/mixed.m3u8
一个人的武林,https://vip.ffzy-play6.com/20221027/2378_15d0f85e/3000k/hls/mixed.m3u8
唐人街探案,https://vip.ffzy-play1.com/20221018/373_37c6bab6/2000k/hls/mixed.m3u8
最爱,https://vip.ffzy-play6.com/20221021/630_d1efe018/3000k/hls/mixed.m3u8
我和我的家乡,https://vip.ffzy-play1.com/20221018/511_7936e28c/2000k/hls/mixed.m3u8
少林寺之得宝传奇,https://vip.ffzy-play.com/20221018/2008_ff32d2ea/2000k/hls/mixed.m3u8
唐人街探案2,https://vip.ffzy-play1.com/20221018/374_2a206140/2000k/hls/mixed.m3u8
唐人街探案3,https://vip.ffzy-play1.com/20221018/375_461d4806/2000k/hls/mixed.m3u8
奔跑吧！兄弟,https://s5.bfzycdn.com/video/benpaobaxiongdi/HD%E5%9B%BD%E8%AF%AD/index.m3u8
天注定,https://vip.ffzy-play7.com/20230403/20788_5665c69d/2000k/hls/mixed.m3u8
私人订制,https://vip.ffzy-play6.com/20221019/192_52684124/3000k/hls/mixed.m3u8
新喜剧之王,https://vip.ffzy-play7.com/20221203/7782_d193a45c/2000k/hls/mixed.m3u8
火龙对决,https://vip.ffzy-play2.com/20221021/230_7c040afc/2000k/hls/mixed.m3u8
烈火男儿之荣誉,https://vod.healthcareqh.com/20230803/TsAO0KCO/index.m3u8
追凶,https://s1.bfzycdn.com/video/zhuixiong/HD%E5%9B%BD%E8%AF%AD/index.m3u8
集结号,https://vip.ffzy-play6.com/20221126/8511_da05451d/3000k/hls/mixed.m3u8
祖宗十九代,https://vip.ffzy-play.com/20221015/1136_c64101c0/2000k/hls/mixed.m3u8
东风雨,https://vip.ffzy-play2.com/20221021/140_324ef100/2000k/hls/mixed.m3u8
一出好戏,https://vip.ffzy-play.com/20221015/949_ecf3b061/2000k/hls/mixed.m3u8
烈火男儿之金斧头,https://vod.healthcareqh.com/20230804/AsC8qxr9/index.m3u8
烈火男儿之隐患,https://vip.ffzy-play7.com/20230407/21370_e68c32ae/2000k/hls/mixed.m3u8
烈火男儿之见习英雄,https://vip.ffzy-play7.com/20230406/21301_e118d2ce/2000k/hls/mixed.m3u8
烈火男儿之队长的故事,https://vip.ffzy-play6.com/20221103/3829_1dac798e/3000k/hls/mixed.m3u8
冰封：重生之门,https://vip.ffzy-play7.com/20221028/421_aa257ab3/2000k/hls/mixed.m3u8
人再囧途之泰囧,https://vip.ffzy-play.com/20221018/1951_47e1adc8/2000k/hls/mixed.m3u8
大有前途,https://vip.ffzy-play7.com/20221126/7159_6504ca3b/2000k/hls/mixed.m3u8
李米的猜想,https://vip.ffzy-play2.com/20221022/268_bd05cd3f/2000k/hls/mixed.m3u8
两个傻瓜的荒唐事,https://vip.ffzy-play7.com/20221126/7155_68809f1e/2000k/hls/mixed.m3u8
高海拔之恋2,https://vip.ffzy-play7.com/20221205/7906_6c477265/2000k/hls/mixed.m3u8
冰封侠：时空行者,https://vip.ffzy-online.com/20221015/670_c420623f/2000k/hls/mixed.m3u8
Hello！树先生,https://vip.ffzy-play6.com/20221019/130_28e143c8/3000k/hls/mixed.m3u8
神通乡巴佬,https://vip.ffzy-play6.com/20221126/8361_bed74783/3000k/hls/mixed.m3u8
不可思异,https://vip.ffzy-play7.com/20230101/10674_3bc93de3/2000k/hls/mixed.m3u8
疯狂的导演,https://vip.ffzy-play6.com/20221022/735_d07a45bf/3000k/hls/mixed.m3u8
越来越好之村晚,https://vip.ffzy-play6.com/20221020/407_2e327e17/3000k/hls/mixed.m3u8
微爱之渐入佳境,https://vip.ffzy-play6.com/20221028/2472_36ce558e/3000k/hls/mixed.m3u8

侯勇,#genre#
守岛人,https://vip.ffzy-play1.com/20221018/323_20b2f818/2000k/hls/mixed.m3u8
冲出亚马逊,https://vip.ffzy-play7.com/20221126/7139_845acd25/2000k/hls/mixed.m3u8
英雄之战,https://vip.ffzy-play6.com/20221028/2514_0248732a/3000k/hls/mixed.m3u8
建党伟业,https://vip.ffzy-play6.com/20221019/168_f44e1477/3000k/hls/mixed.m3u8
惊天动地,https://vip.ffzy-play2.com/20221022/247_9bfd3d5e/2000k/hls/mixed.m3u8
烈火英雄,https://vip.ffzy-play7.com/20221111/3054_b4a0ca31/2000k/hls/mixed.m3u8
战将周希汉,https://yzzy.play-cdn9.com/20221124/16750_8e756bbc/1000k/hls/index.m3u8
八月一日,https://yzzy.play-cdn11.com/20221117/9139_5adb39fa/1000k/hls/index.m3u8
钢铁飞龙之再见奥特曼,https://vip.ffzy-online.com/20221017/964_7b36cfb8/2000k/hls/mixed.m3u8
80后的独立宣言,https://vip.ffzy-online1.com/20230707/42185_0ff5b4c9/2000k/hls/mixed.m3u8
郭明义,https://vip.ffzy-play7.com/20221025/86_e985fd76/2000k/hls/mixed.m3u8
帝国秘符,https://vip.ffzy-play7.com/20221229/10227_fe00bcfa/2000k/hls/mixed.m3u8
英雄无语,https://vip.ffzy-play2.com/20221127/1631_847e22ed/2000k/hls/mixed.m3u8
诱狼,https://vip.ffzy-play6.com/20221031/3105_e3867ee8/3000k/hls/mixed.m3u8
无毒岛,https://vip.ffzy-play2.com/20221119/725_f015ec34/2000k/hls/mixed.m3u8
缉毒警,https://vip.ffzy-play2.com/20221021/236_3199907a/2000k/hls/mixed.m3u8
大会师,https://vip.ffzy-play6.com/20221105/4353_ee0caa7b/3000k/hls/mixed.m3u8
情感意外,https://play.modujx16.com/20240830/2WroTTEv/index.m3u8

沈腾,#genre#
满江红,https://super.ffzy-online6.com/20230428/10975_04d8ac41/2000k/hls/mixed.m3u8
独行月球,https://vip.ffzy-play7.com/20221125/6896_30a3a331/2000k/hls/mixed.m3u8
四海,https://s3.bfzycdn.com/video/sihai/HD%E5%9B%BD%E8%AF%AD/index.m3u8
你好，李焕英,https://vip.ffzy-play7.com/20230115/11530_93d1a732/2000k/hls/mixed.m3u8
西虹市首富,https://vip.ffzy-online.com/20221015/718_2a6a5888/2000k/hls/mixed.m3u8
夏洛特烦恼,https://vip.ffzy-play6.com/20221031/3090_e554950a/3000k/hls/mixed.m3u8
飞驰人生,https://vip.ffzy-play6.com/20221111/5578_51a66dbc/3000k/hls/mixed.m3u8
羞羞的铁拳,https://vip.ffzy-play7.com/20221104/1451_c885a9cb/2000k/hls/mixed.m3u8
疯狂的外星人,https://vip.ffzy-online2.com/20230607/38938_95adfc88/2000k/hls/mixed.m3u8
超能一家人,https://vip.ffzy-play10.com/20230818/39174_06c23aa3/2000k/hls/mixed.m3u8
温暖的抱抱,https://vip.ffzy-play7.com/20230116/11588_006c66cb/2000k/hls/mixed.m3u8
我和我的父辈,https://vip.ffzy-play7.com/20230307/17542_0c58cae5/2000k/hls/mixed.m3u8
我和我的家乡,https://vip.ffzy-play1.com/20221018/511_7936e28c/2000k/hls/mixed.m3u8
一念天堂,https://vip.ffzy-play6.com/20221031/3100_7507160c/3000k/hls/mixed.m3u8
龙虾刑警,https://vip.ffzy-play.com/20221017/1752_f1f7400d/2000k/hls/mixed.m3u8
我的青春有个你,https://vip.ffzy-play1.com/20221018/500_a4a5ab4f/2000k/hls/mixed.m3u8
年兽大作战,https://vip.ffzy-play6.com/20221204/9726_5f00e2dc/3000k/hls/mixed.m3u8
李茶的姑妈,https://vip.ffzy-play6.com/20221108/5185_f5dd6ccf/3000k/hls/mixed.m3u8
日不落酒店,https://vip.ffzy-play.com/20221018/1957_da291f3e/2000k/hls/mixed.m3u8
妖铃铃,https://vip.ffzy-play7.com/20221104/1454_d4cee914/2000k/hls/mixed.m3u8