{
  "urls": [
    {
      "name": "多多",
      "url": "https://gitlab.com/zw1990/zmlmv/raw/main/多多/api_new.json"
    },
    {
      "name": "陆城",
      "url": "http://jianhan.vip/lcys/lcjk.json"
    },
    {
      "name": "开心",
      "url": "http://ttkx.cc:55/天天开心"
    },
    {
      "name": "拾光",
      "url": "https://4708.kstore.space/tvbox/api.json"
    },
    {
      "name": "挺好",
      "url": "https://ztha.top/TVBox/thdjk.json"
    },
    {
      "name": "短剧频道",
      "url": "https://7337.kstore.space/dj/api.json"
    },
    {
      "name": "动漫频道",
      "url": "https://www.yingm.cc/dm/dm.json"
    },
    {
      "name": "饭太硬",
      "url": "http://www.饭太硬.com/tv/"
    },
    {
      "name": "星辰线路",
      "url": "https://fmbox.cc/"
    },
    {
      "name": "肥猫",
      "url": "http://肥猫.com"
    },
    {
      "name": "星云线路",
      "url": "http://xin2025.shop/"
    },
    {
      "name": "香雅情XYQ",
      "url": "https://gh-proxy.com/https://raw.githubusercontent.com/gaotianliuyun/gao/master/XYQ.json"
    }
  ]
}