{"urls":[
{"name":"🍚饭太硬","url":"http://饭太硬.top/tv"},
{
  "name": "💞多多",
  "url": "http://yydsys.link/v1x"
},
{"name":"🐼肥猫","url":"http://肥猫.live"},
{"name":"🐼肥猫小白","url":"http://小白.love"},
{"name":"🐼肥猫禁卖","url":"http://我不是.肥猫.live/接口禁止贩卖"},
{"name":"🎬影探","url":"http://www.lyyytv.cn/yt/yt.json"},
{"name":"💠欧歌","url":"http://tv.nxog.top/m/111.php?ou=公众号欧歌app&mz=index2&jar=index2&123&b=欧歌"},
{"name":"🍨刺桐","url":"http://tv.cttv.vip/uploads/itvbox/vip.json"},
{"name":"💝爱TV吧","url":"http://tt.58cxz.com/001.json"},
{"name":"🍃吾爱","url":"http://52bsj.vip:98/wuai"},	
{"name": "⚜️小米线路","url": "http://xhww.fun:63/小米/DEMO.json"},
{"name":"🌼菜妮丝","url":"https://tvbox.cainisi.cf"},
{"name":"🌷荷城茶秀","url":"http://rihou.cc:88/荷城茶秀"},
{"name":"🍀俊宇","url":"http://home.jundie.top:81/top98.json"},
{"name":"📿神器","url":"https://神器每日推送.tk/pz.json"},
{"name":"🌙月光宝盒","url":"https://jihulab.com/bh666/YGBH/-/raw/main/box原.json?ref_type=heads"},
{"name":"✨星星","url":"https://gitee.com/myxkx/xxysck/raw/master/星星影视仓库内容.txt"},
{"name":"🌪南风","url":"https://agit.ai/Yoursmile7/TVBox/raw/branch/master/XC.json"},
{"name":"☁云观","url":"http://52bsj.vip:81/api/v3/file/get/161268/52.txt?sign=oYVF6yRp1d_2lBrCMXoWPoRRDmkh-YEWlo1qpKxJG8Q%3D%3A0"},
{"name": "⚜️道长线路","url": "https://pastebin.com/raw/5NHaxyGR"},
{"name": "⚜️唐三线路","url": "https://hutool.ml/tang"},
{"name":"🐥胖鸭","url":"https://agit.ai/cyl518/yl/raw/branch/master/pytv.json"},
{"name":"💝于氏","url":"https://agit.ai/sejinan/app/raw/branch/box/yu"},
{"name":"☁云星","url":"http://itvbox.cc/tvbox/云星日记/1.m3u8"},
{"name":"🐯catbox","url":"https://agit.ai/ddx/TVBox/raw/branch/master/catbox.json"},
{"name":"🐯catboxT4","url":"https://agit.ai/ddx/TVBox/raw/branch/master/t4.json"},
{"name":"🐯猫技{跑马灯}","url":"https://agit.ai/ddx/TVBox/raw/branch/master/m.json"},
{"name":"💧分享者{跑马灯}","url":"https://agit.ai/767820774/mao666/raw/branch/master/00/000.m3u8"},
{"name":"🛡大卫","url":"https://xhdwc.tk/0"},
{"name":"💮巴不巴拉","url":"https://bjson.cf/balabala"},
{"name":"💞神仙影视","url":"https://jihulab.com/sxtv/1020/-/raw/main/%E7%A6%81%E6%AD%A2%E8%B4%A9%E5%8D%96/%E7%9B%97%E7%94%A8%E6%8E%A5%E5%8F%A3%E6%98%AF%E7%8B%97?ref_type=heads"},
{"name":"🚚运输车{跑马灯}","url":"https://weixine.net/ysc.json"},
{"name":"💦巧技{公众号获密码}","url":"http://cdn.qiaoji8.com/tvbox.json"}
]}