{
    "wallpaper": "https://tuapi.eees.cc/api.php?category=fengjing&type=302",
    "hipy_sites_count": 52,
    "mode": 0,
    "spider": "http://hipy.nokia.press/files/jar/custom_spider_dz1201.jar",
    "homepage": "https://github.com/hjdhnx/hipy-server",
    "sites": [
        {
            "key": "hipy_t4_cntv央视",
            "name": "cntv央视",
            "type": 4,
            "api": "http://hipy.nokia.press/api/v1/vod/cntv央视?pwd=dzyyds",
            "searchable": 1,
            "quickSearch": 0,
            "filterable": 1,
            "order_num": 0,
            "ext": "http://hipy.nokia.press/files/hipy/cntv央视.json"
        },
        {
            "key": "drpy_t4_农民影视",
            "name": "农民影视",
            "type": 4,
            "api": "http://hipy.nokia.press/api/v1/vod/农民影视.js?pwd=dzyyds",
            "searchable": 1,
            "quickSearch": 0,
            "filterable": 1,
            "order_num": 18,
            "ext": ""
        },
        {
            "key": "hipy_t4_新浪资源",
            "name": "新浪资源",
            "type": 4,
            "api": "http://hipy.nokia.press/api/v1/vod/新浪资源?pwd=dzyyds",
            "searchable": 1,
            "quickSearch": 0,
            "filterable": 1,
            "order_num": 12,
            "ext": ""
        },
        {
            "key": "drpy_t4_爱看机器人",
            "name": "爱看机器人",
            "type": 4,
            "api": "http://hipy.nokia.press/api/v1/vod/爱看机器人.js?pwd=dzyyds",
            "searchable": 1,
            "quickSearch": 0,
            "filterable": 1,
            "order_num": 52,
            "ext": ""
        },
        {
            "key": "drpy_t4_兔小贝",
            "name": "兔小贝",
            "type": 4,
            "api": "http://hipy.nokia.press/api/v1/vod/兔小贝.js?pwd=dzyyds",
            "searchable": 1,
            "quickSearch": 0,
            "filterable": 0,
            "order_num": 55,
            "ext": ""
        },
        {
            "key": "drpy_t4_厂长资源",
            "name": "厂长资源",
            "type": 4,
            "api": "http://hipy.nokia.press/api/v1/vod/厂长资源.js?pwd=dzyyds",
            "searchable": 1,
            "quickSearch": 0,
            "filterable": 0,
            "order_num": 125,
            "ext": ""
        },
        {
            "key": "drpy_t4_农民影视2",
            "name": "农民影视2",
            "type": 4,
            "api": "http://hipy.nokia.press/api/v1/vod/农民影视2.js?pwd=dzyyds",
            "searchable": 1,
            "quickSearch": 0,
            "filterable": 1,
            "order_num": 131,
            "ext": ""
        },
        {
            "key": "drpy_t4_量子资源",
            "name": "量子资源",
            "type": 4,
            "api": "http://hipy.nokia.press/api/v1/vod/量子资源.js?pwd=dzyyds",
            "searchable": 1,
            "quickSearch": 1,
            "filterable": 0,
            "order_num": 135,
            "ext": ""
        },
        {
            "key": "drpy_t4_非凡资源",
            "name": "非凡资源",
            "type": 4,
            "api": "http://hipy.nokia.press/api/v1/vod/非凡资源.js?pwd=dzyyds",
            "searchable": 1,
            "quickSearch": 1,
            "filterable": 0,
            "order_num": 137,
            "ext": ""
        },
        {
            "key": "drpy_t4_极速资源",
            "name": "极速资源",
            "type": 4,
            "api": "http://hipy.nokia.press/api/v1/vod/极速资源.js?pwd=dzyyds",
            "searchable": 1,
            "quickSearch": 1,
            "filterable": 0,
            "order_num": 138,
            "ext": ""
        },
        {
            "key": "drpy_t4_暴风资源",
            "name": "暴风资源",
            "type": 4,
            "api": "http://hipy.nokia.press/api/v1/vod/暴风资源.js?pwd=dzyyds",
            "searchable": 1,
            "quickSearch": 1,
            "filterable": 0,
            "order_num": 139,
            "ext": ""
        },
        {
            "key": "drpy_t4_卧龙资源",
            "name": "卧龙资源",
            "type": 4,
            "api": "http://hipy.nokia.press/api/v1/vod/卧龙资源.js?pwd=dzyyds",
            "searchable": 1,
            "quickSearch": 1,
            "filterable": 0,
            "order_num": 141,
            "ext": ""
        },
        {
            "key": "drpy_t4_LIBVIO",
            "name": "LIBVIO",
            "type": 4,
            "api": "http://hipy.nokia.press/api/v1/vod/LIBVIO.js?pwd=dzyyds",
            "searchable": 1,
            "quickSearch": 0,
            "filterable": 1,
            "order_num": 142,
            "ext": ""
        },
        {
            "key": "drpy_t4_金鹰资源",
            "name": "金鹰资源",
            "type": 4,
            "api": "http://hipy.nokia.press/api/v1/vod/金鹰资源.js?pwd=dzyyds",
            "searchable": 1,
            "quickSearch": 1,
            "filterable": 0,
            "order_num": 143,
            "ext": ""
        },
        {
            "key": "drpy_t4_大米星球[V2]",
            "name": "大米星球[V2]",
            "type": 4,
            "api": "http://hipy.nokia.press/api/v1/vod/大米星球[V2].js?pwd=dzyyds",
            "searchable": 1,
            "quickSearch": 0,
            "filterable": 1,
            "order_num": 148,
            "ext": ""
        },
        {
            "key": "drpy_t4_voflix",
            "name": "voflix",
            "type": 4,
            "api": "http://hipy.nokia.press/api/v1/vod/voflix.js?pwd=dzyyds",
            "searchable": 1,
            "quickSearch": 0,
            "filterable": 1,
            "order_num": 149,
            "ext": ""
        },
        {
            "key": "drpy_t4_量子影视",
            "name": "量子影视",
            "type": 4,
            "api": "http://hipy.nokia.press/api/v1/vod/量子影视.js?pwd=dzyyds",
            "searchable": 1,
            "quickSearch": 0,
            "filterable": 1,
            "order_num": 150,
            "ext": ""
        },
        {
            "key": "drpy_t4_可可影视",
            "name": "可可影视",
            "type": 4,
            "api": "http://hipy.nokia.press/api/v1/vod/可可影视.js?pwd=dzyyds",
            "searchable": 1,
            "quickSearch": 0,
            "filterable": 1,
            "order_num": 156,
            "ext": ""
        },
        {
            "key": "drpy_t4_网飞猫",
            "name": "网飞猫",
            "type": 4,
            "api": "http://hipy.nokia.press/api/v1/vod/网飞猫.js?pwd=dzyyds",
            "searchable": 1,
            "quickSearch": 0,
            "filterable": 1,
            "order_num": 157,
            "ext": ""
        },
        {
            "key": "CMS_非凡资源",
            "name": "🥗┃非凡┃资源",
            "type": 1,
            "api": "http://cj.ffzyapi.com/api.php/provide/vod/",
            "playurl": "json:http://jx.84jia.com/m3u8ts.php?url=",
            "searchable": 1,
            "quickSearch": 1,
            "filterable": 1,
            "categories": [
                "动作片",
                "喜剧片",
                "科幻片",
                "恐怖片",
                "爱情片",
                "剧情片",
                "战争片",
                "记录片",
                "国产剧",
                "欧美剧",
                "香港剧",
                "韩国剧",
                "台湾剧",
                "日本剧",
                "海外剧",
                "泰国剧",
                "国产动漫",
                "日韩动漫",
                "欧美动漫",
                "港台动漫",
                "海外动漫",
                "大陆综艺",
                "港台综艺",
                "日韩综艺",
                "欧美综艺"
            ],
            "order_num": 9999
        },
        {
            "key": "CMS_量子资源",
            "name": "🥑┃量子┃资源",
            "type": 1,
            "api": "http://cj.lziapi.com/api.php/provide/vod/",
            "playurl": "json:http://jx.84jia.com/m3u8ts.php?url=",
            "searchable": 1,
            "quickSearch": 1,
            "filterable": 0,
            "categories": [
                "国产剧",
                "国产动漫",
                "泰国剧",
                "台湾剧",
                "香港剧",
                "欧美剧",
                "韩国剧",
                "日本剧",
                "动漫",
                "体育",
                "剧情片",
                "动作片",
                "爱情片",
                "喜剧片"
            ],
            "order_num": 9999
        },
        {
            "key": "Live2Cms",
            "name": "直播转点播V2",
            "type": 3,
            "api": "http://hipy.nokia.press/files/drpy_libs/live2cms.js",
            "searchable": 2,
            "quickSearch": 0,
            "filterable": 0,
            "ext": "http://hipy.nokia.press/files/json/live2mv_data.json",
            "order_num": 9999
        },
        {
            "key": "Alist",
            "name": "Alist",
            "type": 3,
            "api": "http://hipy.nokia.press/files/drpy_libs/alist.min.js",
            "searchable": 2,
            "quickSearch": 0,
            "filterable": 0,
            "ext": "http://hipy.nokia.press/files/json/alist.json;200;video",
            "order_num": 9999
        },
        {
            "key": "金鹰资源",
            "name": "金鹰资源(切)",
            "type": 1,
            "api": "http://jinyingzy.com/provide/vod",
            "searchable": 1,
            "quickSearch": 1,
            "order_num": 9999
        },
        {
            "key": "冠军资源",
            "name": "冠军资源(切)",
            "type": 1,
            "api": "https://www.cmpzy.com/api.php/provide/vod/",
            "searchable": 1,
            "quickSearch": 1,
            "order_num": 9999
        },
        {
            "key": "1080资源库",
            "name": "1080资源库(切)",
            "type": 1,
            "api": "https://api.1080zyku.com/inc/api_mac10.php",
            "searchable": 0,
            "quickSearch": 0,
            "order_num": 9999
        },
        {
            "key": "快车资源",
            "name": "快车资源(切)",
            "type": 1,
            "api": "https://caiji.kczyapi.com/api.php/provide/vod/",
            "searchable": 1,
            "quickSearch": 1,
            "order_num": 9999
        },
        {
            "key": "量子资源",
            "name": "量子资源(切)",
            "type": 1,
            "api": "http://cj.lziapi.com/api.php/provide/vod/",
            "searchable": 1,
            "quickSearch": 1,
            "order_num": 9999
        },
        {
            "key": "番茄资源",
            "name": "番茄资源(切)",
            "type": 1,
            "api": "http://api.fqzy.cc/api.php/provide/vod/",
            "searchable": 1,
            "quickSearch": 1,
            "order_num": 9999
        },
        {
            "key": "卧龙资源",
            "name": "卧龙资源(切)",
            "type": 1,
            "api": "https://collect.wolongzyw.com/api.php/provide/vod/",
            "searchable": 1,
            "quickSearch": 1,
            "order_num": 9999
        },
        {
            "key": "红牛资源",
            "name": "红牛资源(切)",
            "type": 1,
            "api": "https://www.hongniuzy2.com/api.php/provide/vod/",
            "searchable": 1,
            "quickSearch": 1,
            "order_num": 9999
        },
        {
            "key": "樱花资源",
            "name": "樱花资源(切)",
            "type": 1,
            "api": "https://m3u8.apiyhzy.com/api.php/provide/vod/",
            "searchable": 1,
            "quickSearch": 1,
            "order_num": 9999
        },
        {
            "key": "易看资源",
            "name": "易看资源(切)",
            "type": 1,
            "api": "https://api.yikanapi.com/api.php/provide/vod/",
            "searchable": 1,
            "quickSearch": 1,
            "order_num": 9999
        },
        {
            "key": "酷点资源",
            "name": "酷点资源(切)",
            "type": 1,
            "api": "https://kudianzy.com/api.php/provide/vod/",
            "searchable": 1,
            "quickSearch": 1,
            "order_num": 9999
        },
        {
            "key": "闪电资源",
            "name": "闪电资源(切)",
            "type": 1,
            "api": "http://sdzyapi.com/api.php/provide/vod/",
            "searchable": 1,
            "quickSearch": 1,
            "order_num": 9999
        },
        {
            "key": "飞速资源",
            "name": "飞速资源(切)",
            "type": 1,
            "api": "https://www.feisuzy.com/api.php/provide/vod/",
            "searchable": 1,
            "quickSearch": 1,
            "order_num": 9999
        },
        {
            "key": "光速资源",
            "name": "光速资源(切)",
            "type": 1,
            "api": "https://api.guangsuapi.com/api.php/provide/vod/",
            "searchable": 1,
            "quickSearch": 1,
            "order_num": 9999
        },
        {
            "key": "新浪资源",
            "name": "新浪资源(切)",
            "type": 1,
            "api": "http://api.xinlangapi.com/xinlangapi.php/provide/vod/",
            "searchable": 1,
            "quickSearch": 1,
            "order_num": 9999
        },
        {
            "key": "鱼乐资源",
            "name": "鱼乐资源(切)",
            "type": 1,
            "api": "https://api.ylzy1.com/api.php/provide/vod/",
            "searchable": 1,
            "quickSearch": 1,
            "order_num": 9999
        },
        {
            "key": "八戒资源",
            "name": "八戒资源(切)",
            "type": 1,
            "api": "http://cj.bajiecaiji.com/inc/apijson_vod.php",
            "searchable": 0,
            "quickSearch": 0,
            "order_num": 9999
        },
        {
            "key": "快播资源",
            "name": "快播资源(切)",
            "type": 1,
            "api": "http://www.kuaibozy.com/api.php/provide/vod/",
            "searchable": 1,
            "quickSearch": 1,
            "order_num": 9999
        },
        {
            "key": "百度资源",
            "name": "百度资源(切)",
            "type": 1,
            "api": "https://api.apibdzy.com/api.php/provide/vod/",
            "searchable": 1,
            "quickSearch": 1,
            "order_num": 9999
        },
        {
            "key": "天空资源",
            "name": "天空资源(切)",
            "type": 1,
            "api": "https://api.tiankongapi.com/api.php/provide/vod/",
            "searchable": 1,
            "quickSearch": 1,
            "order_num": 9999
        },
        {
            "key": "南国影源",
            "name": "南国影源(切)",
            "type": 1,
            "api": "http://api.nguonphim.tv/api.php/provide/vod/",
            "searchable": 1,
            "quickSearch": 1,
            "order_num": 9999
        },
        {
            "key": "U酷资源",
            "name": "U酷资源(优)",
            "type": 1,
            "api": "https://api.ukuapi.com/api.php/provide/vod/",
            "searchable": 1,
            "quickSearch": 1,
            "order_num": 9999
        },
        {
            "key": "影图",
            "name": "影图(聚)",
            "type": 1,
            "api": "https://cj.vodimg.top/api.php/provide/vod/",
            "searchable": 1,
            "quickSearch": 1,
            "order_num": 9999
        },
        {
            "key": "随缘电影",
            "name": "随缘电影(聚)",
            "type": 1,
            "api": "https://baobei666.com/inc/apijson_vod.php",
            "searchable": 0,
            "quickSearch": 0,
            "order_num": 9999
        },
        {
            "key": "飘零影院",
            "name": "飘零影院(聚)",
            "type": 1,
            "api": "https://p2100.net/api.php/provide/vod/",
            "searchable": 1,
            "quickSearch": 1,
            "order_num": 9999
        },
        {
            "key": "39影视",
            "name": "39影视(聚)",
            "type": 1,
            "api": "https://www.39kan.com/api.php/provide/vod/",
            "searchable": 1,
            "quickSearch": 1,
            "order_num": 9999
        }
    ],
    "parses": [
        {
            "name": "🌐Ⓤ",
            "type": 0,
            "url": "",
            "header": {
                "User-Agent": "Mozilla/5.0"
            }
        },
        {
            "name": "轮询",
            "type": 2,
            "url": "Sequence",
            "header": {
                "User-Agent": "Mozilla/5.0"
            }
        },
        {
            "name": "并发",
            "type": 2,
            "url": "Parallel",
            "header": {
                "User-Agent": "Mozilla/5.0"
            }
        },
        {
            "name": "哔哩",
            "url": "http://hipy.nokia.press/parse/api/哔哩.js?url=",
            "type": 1,
            "ext": {
                "flag": [
                    "qiyi",
                    "imgo",
                    "爱奇艺",
                    "奇艺",
                    "qq",
                    "qq 预告及花絮",
                    "腾讯",
                    "youku",
                    "优酷",
                    "pptv",
                    "PPTV",
                    "letv",
                    "乐视",
                    "leshi",
                    "mgtv",
                    "芒果",
                    "sohu",
                    "xigua",
                    "fun",
                    "风行"
                ]
            },
            "header": {
                "User-Agent": "Mozilla/5.0"
            }
        },
        {
            "name": "杰森",
            "url": "http://hipy.nokia.press/parse/api/杰森.js?url=",
            "type": 1,
            "ext": {
                "flag": [
                    "qiyi",
                    "imgo",
                    "爱奇艺",
                    "奇艺",
                    "qq",
                    "qq 预告及花絮",
                    "腾讯",
                    "youku",
                    "优酷",
                    "pptv",
                    "PPTV",
                    "letv",
                    "乐视",
                    "leshi",
                    "mgtv",
                    "芒果",
                    "sohu",
                    "xigua",
                    "fun",
                    "风行"
                ]
            },
            "header": {
                "User-Agent": "Mozilla/5.0"
            }
        },
        {
            "name": "阳途",
            "url": "http://hipy.nokia.press/parse/api/阳途.js?url=",
            "type": 1,
            "ext": {
                "flag": [
                    "qiyi",
                    "imgo",
                    "爱奇艺",
                    "奇艺",
                    "qq",
                    "qq 预告及花絮",
                    "腾讯",
                    "youku",
                    "优酷",
                    "pptv",
                    "PPTV",
                    "letv",
                    "乐视",
                    "leshi",
                    "mgtv",
                    "芒果",
                    "sohu",
                    "xigua",
                    "fun",
                    "风行"
                ]
            },
            "header": {
                "User-Agent": "Mozilla/5.0"
            }
        },
        {
            "name": "夜幕",
            "url": "http://hipy.nokia.press/parse/api/夜幕.js?url=",
            "type": 1,
            "ext": {
                "flag": [
                    "qiyi",
                    "imgo",
                    "爱奇艺",
                    "奇艺",
                    "qq",
                    "qq 预告及花絮",
                    "腾讯",
                    "youku",
                    "优酷",
                    "pptv",
                    "PPTV",
                    "letv",
                    "乐视",
                    "leshi",
                    "mgtv",
                    "芒果",
                    "sohu",
                    "xigua",
                    "fun",
                    "风行"
                ]
            },
            "header": {
                "User-Agent": "Mozilla/5.0"
            }
        },
        {
            "name": "虾米",
            "url": "http://hipy.nokia.press/parse/api/虾米.js?url=",
            "type": 1,
            "ext": {
                "flag": [
                    "qiyi",
                    "imgo",
                    "爱奇艺",
                    "奇艺",
                    "qq",
                    "qq 预告及花絮",
                    "腾讯",
                    "youku",
                    "优酷",
                    "pptv",
                    "PPTV",
                    "letv",
                    "乐视",
                    "leshi",
                    "mgtv",
                    "芒果",
                    "sohu",
                    "xigua",
                    "fun",
                    "风行"
                ]
            },
            "header": {
                "User-Agent": "Mozilla/5.0"
            }
        },
        {
            "name": "CK",
            "url": "http://hipy.nokia.press/parse/api/CK.js?url=",
            "type": 1,
            "ext": {
                "flag": [
                    "qiyi",
                    "imgo",
                    "爱奇艺",
                    "奇艺",
                    "qq",
                    "qq 预告及花絮",
                    "腾讯",
                    "youku",
                    "优酷",
                    "pptv",
                    "PPTV",
                    "letv",
                    "乐视",
                    "leshi",
                    "mgtv",
                    "芒果",
                    "sohu",
                    "xigua",
                    "fun",
                    "风行"
                ]
            },
            "header": {
                "User-Agent": "Mozilla/5.0"
            }
        },
        {
            "name": "盘古",
            "url": "http://hipy.nokia.press/parse/api/盘古.js?url=",
            "type": 1,
            "ext": {
                "flag": [
                    "qiyi",
                    "imgo",
                    "爱奇艺",
                    "奇艺",
                    "qq",
                    "qq 预告及花絮",
                    "腾讯",
                    "youku",
                    "优酷",
                    "pptv",
                    "PPTV",
                    "letv",
                    "乐视",
                    "leshi",
                    "mgtv",
                    "芒果",
                    "sohu",
                    "xigua",
                    "fun",
                    "风行"
                ]
            },
            "header": {
                "User-Agent": "Mozilla/5.0"
            }
        },
        {
            "name": "8090g",
            "url": "https://www.8090g.cn/jiexi/?url=",
            "type": 0,
            "ext": {
                "flag": [
                    "qiyi",
                    "imgo",
                    "爱奇艺",
                    "奇艺",
                    "qq",
                    "qq 预告及花絮",
                    "腾讯",
                    "youku",
                    "优酷",
                    "pptv",
                    "PPTV",
                    "letv",
                    "乐视",
                    "leshi",
                    "mgtv",
                    "芒果",
                    "sohu",
                    "xigua",
                    "fun",
                    "风行"
                ]
            },
            "header": {
                "User-Agent": "Mozilla/5.0"
            }
        },
        {
            "name": "小7",
            "url": "https://2.08bk.com/?url=",
            "type": 0,
            "ext": {
                "flag": [
                    "qiyi",
                    "imgo",
                    "爱奇艺",
                    "奇艺",
                    "qq",
                    "qq 预告及花絮",
                    "腾讯",
                    "youku",
                    "优酷",
                    "pptv",
                    "PPTV",
                    "letv",
                    "乐视",
                    "leshi",
                    "mgtv",
                    "芒果",
                    "sohu",
                    "xigua",
                    "fun",
                    "风行"
                ]
            },
            "header": {
                "User-Agent": "Mozilla/5.0"
            }
        },
        {
            "name": "BL解析",
            "url": "https://vip.bljiex.com/?v=",
            "type": 0,
            "ext": {
                "flag": [
                    "qiyi",
                    "imgo",
                    "爱奇艺",
                    "奇艺",
                    "qq",
                    "qq 预告及花絮",
                    "腾讯",
                    "youku",
                    "优酷",
                    "pptv",
                    "PPTV",
                    "letv",
                    "乐视",
                    "leshi",
                    "mgtv",
                    "芒果",
                    "sohu",
                    "xigua",
                    "fun",
                    "风行"
                ]
            },
            "header": {
                "User-Agent": "Mozilla/5.0"
            }
        },
        {
            "name": "keyu",
            "type": 1,
            "url": "http://newjiexi.gotka.top/keyu3.php?url=",
            "ext": {
                "flag": [
                    "qq",
                    "腾讯",
                    "qiyi",
                    "爱奇艺",
                    "奇艺",
                    "youku",
                    "优酷",
                    "mgtv",
                    "芒果",
                    "letv",
                    "乐视",
                    "pptv",
                    "PPTV",
                    "sohu",
                    "bilibili",
                    "哔哩哔哩",
                    "哔哩"
                ],
                "header": {
                    "User-Agent": "okhttp/4.1.0"
                }
            },
            "order_num": 9999
        }
    ],
    "flags": [
        "imgo",
        "youku",
        "qq",
        "qq 预告及花絮",
        "iqiyi",
        "qiyi",
        "fun",
        "letv",
        "leshi",
        "sohu",
        "tudou",
        "xigua",
        "cntv",
        "1905",
        "pptv",
        "mgtv",
        "wasu",
        "bilibili",
        "renrenmi"
    ],
    "hotSearch": [
        {
            "name": "mobilesearch",
            "request": {
                "method": "GET",
                "header": [
                    {
                        "key": "Referer",
                        "value": "http://hipy.nokia.press"
                    }
                ],
                "url": {
                    "raw": "http://hipy.nokia.press/hotsugg?t={time}"
                }
            },
            "response": {
                "result": "$.data",
                "data": [
                    {
                        "key": "keyword",
                        "value": "title"
                    }
                ]
            }
        }
    ],
    "lives": [
        {
            "group": "redirect",
            "channels": [
                {
                    "name": "直播",
                    "urls": [
                        "proxy://do=live&type=txt&ext=http://hipy.nokia.press:5708/ysp"
                    ]
                }
            ]
        }
    ],
    "sniffer": {
        "userAgent": "Mozilla/5.0 (Windows NT 10.0; Win64; x64) AppleWebKit/537.36 (KHTML, like Gecko) Chrome/105.0.0.0 Safari/537.36 Edg/105.0.1343.27",
        "isVideoFormat": "http((?!http).){26,}\\.(m3u8|mp4|flv|avi|mkv|wmv|mpg|mpeg|mov|ts|3gp|rm|rmvb|asf|m4a|mp3|wma)",
        "custom": [
            {
                "url": "/Cloud/Down/AliCloud/",
                "mimeType": "text/html",
                "encoding": "utf-8",
                "header": {
                    "Referer": "https://zxzj.vip/"
                }
            },
            {
                "url": "ysting.ysxs8.vip",
                "mimeType": "text/html",
                "encoding": "utf-8",
                "header": {
                    "Referer": "http://ysting.ysxs8.vip:81"
                }
            }
        ]
    },
    "recommend": [
        {
            "name": "豆瓣推荐",
            "request": {
                "method": "GET",
                "header": [
                    {
                        "key": "Referer",
                        "value": "https://movie.douban.com/"
                    }
                ],
                "url": {
                    "raw": "https://movie.douban.com/j/new_search_subjects?sort=U&range=0,10&tags=&playable=1&start=0&year_range=2022,2022"
                }
            },
            "response": {
                "result": "$.data",
                "data": [
                    {
                        "key": "name",
                        "value": "title"
                    },
                    {
                        "key": "note",
                        "value": "rate"
                    },
                    {
                        "key": "pic",
                        "value": "cover"
                    }
                ]
            },
            "expires": "86400"
        }
    ],
    "rating": [
        {
            "name": "rating",
            "request": {
                "method": "GET",
                "url": {
                    "raw": "https://api.wmdb.tv/api/v1/movie/search?q={name}&limit=1"
                }
            },
            "response": {
                "result": "this",
                "data": [
                    {
                        "key": "rating",
                        "value": "doubanRating"
                    }
                ]
            }
        }
    ],
    "doh": [
        {
            "ips": [
                "8.8.4.4",
                "8.8.8.8"
            ],
            "name": "Google",
            "url": "https://dns.google/dns-query"
        },
        {
            "ips": [
                "1.1.1.1",
                "1.0.0.1",
                "2606:4700:4700::1111",
                "2606:4700:4700::1001"
            ],
            "name": "Cloudflare",
            "url": "https://cloudflare-dns.com/dns-query"
        },
        {
            "ips": [
                "94.140.14.140",
                "94.140.14.141"
            ],
            "name": "AdGuard",
            "url": "https://dns.adguard.com/dns-query"
        },
        {
            "ips": [
                "84.200.69.80",
                "84.200.70.40"
            ],
            "name": "DNSWatch",
            "url": "https://resolver2.dns.watch/dns-query"
        },
        {
            "ips": [
                "9.9.9.9",
                "149.112.112.112"
            ],
            "name": "Quad9",
            "url": "https://dns.quad9.net/dns-quer"
        }
    ],
    "ijk": [
        {
            "group": "软解码",
            "options": [
                {
                    "category": 4,
                    "name": "opensles",
                    "value": "0"
                },
                {
                    "category": 4,
                    "name": "overlay-format",
                    "value": "842225234"
                },
                {
                    "category": 4,
                    "name": "framedrop",
                    "value": "1"
                },
                {
                    "category": 4,
                    "name": "soundtouch",
                    "value": "1"
                },
                {
                    "category": 4,
                    "name": "start-on-prepared",
                    "value": "1"
                },
                {
                    "category": 1,
                    "name": "http-detect-range-support",
                    "value": "0"
                },
                {
                    "category": 1,
                    "name": "fflags",
                    "value": "fastseek"
                },
                {
                    "category": 2,
                    "name": "skip_loop_filter",
                    "value": "48"
                },
                {
                    "category": 4,
                    "name": "reconnect",
                    "value": "1"
                },
                {
                    "category": 4,
                    "name": "enable-accurate-seek",
                    "value": "0"
                },
                {
                    "category": 4,
                    "name": "mediacodec",
                    "value": "0"
                },
                {
                    "category": 4,
                    "name": "mediacodec-auto-rotate",
                    "value": "0"
                },
                {
                    "category": 4,
                    "name": "mediacodec-handle-resolution-change",
                    "value": "0"
                },
                {
                    "category": 4,
                    "name": "mediacodec-hevc",
                    "value": "0"
                },
                {
                    "category": 1,
                    "name": "dns_cache_timeout",
                    "value": "600000000"
                },
                {
                    "category": 4,
                    "name": "max-buffer-size",
                    "value": "15728640"
                }
            ]
        },
        {
            "group": "硬解码",
            "options": [
                {
                    "category": 4,
                    "name": "opensles",
                    "value": "0"
                },
                {
                    "category": 4,
                    "name": "overlay-format",
                    "value": "842225234"
                },
                {
                    "category": 4,
                    "name": "framedrop",
                    "value": "1"
                },
                {
                    "category": 4,
                    "name": "soundtouch",
                    "value": "1"
                },
                {
                    "category": 4,
                    "name": "start-on-prepared",
                    "value": "1"
                },
                {
                    "category": 1,
                    "name": "http-detect-range-support",
                    "value": "0"
                },
                {
                    "category": 1,
                    "name": "fflags",
                    "value": "fastseek"
                },
                {
                    "category": 2,
                    "name": "skip_loop_filter",
                    "value": "48"
                },
                {
                    "category": 4,
                    "name": "reconnect",
                    "value": "1"
                },
                {
                    "category": 4,
                    "name": "max-buffer-size",
                    "value": "15728640"
                },
                {
                    "category": 4,
                    "name": "enable-accurate-seek",
                    "value": "0"
                },
                {
                    "category": 4,
                    "name": "mediacodec",
                    "value": "1"
                },
                {
                    "category": 4,
                    "name": "mediacodec-auto-rotate",
                    "value": "1"
                },
                {
                    "category": 4,
                    "name": "mediacodec-handle-resolution-change",
                    "value": "1"
                },
                {
                    "category": 4,
                    "name": "mediacodec-hevc",
                    "value": "1"
                },
                {
                    "category": 1,
                    "name": "dns_cache_timeout",
                    "value": "600000000"
                }
            ]
        }
    ],
    "rules": [
        {
            "hosts": [
                "raw.githubusercontent.com",
                "googlevideo.com",
                "cdn.v82u1l.com",
                "cdn.iz8qkg.com",
                "cdn.kin6c1.com",
                "c.biggggg.com",
                "c.olddddd.com",
                "haiwaikan.com",
                "www.histar.tv",
                "youtube.com",
                "uhibo.com",
                ".*boku.*",
                ".*nivod.*",
                ".*ulivetv.*",
                "wogg.link",
                "wogg.xyz"
            ],
            "name": "proxy"
        },
        {
            "name": "农民点击嗅探",
            "hosts": [
                "api.cnmcom.com"
            ],
            "script": [
                "document.querySelector('.line').click()"
            ]
        },
        {
            "hosts": [
                "magnet"
            ],
            "name": "cl",
            "regex": [
                "最新",
                "直播",
                "更新"
            ]
        },
        {
            "hosts": [
                "haiwaikan"
            ],
            "name": "海外看",
            "regex": [
                "10.0099",
                "10.3333",
                "16.0599",
                "8.1748",
                "12.33",
                "10.85"
            ]
        },
        {
            "hosts": [
                "suonizy"
            ],
            "name": "索尼",
            "regex": [
                "15.1666",
                "15.2666"
            ]
        },
        {
            "hosts": [
                "bfzy",
                "bfbfvip"
            ],
            "name": "暴風",
            "regex": [
                "#EXTINF.*?\\s+.*?adjump.*?\\.ts\\s+"
            ]
        },
        {
            "hosts": [
                "aws.ulivetv.net"
            ],
            "name": "星星",
            "regex": [
                "#EXT-X-DISCONTINUITY\\r*\\n*#EXTINF:8,[\\s\\S]*?#EXT-X-DISCONTINUITY"
            ]
        },
        {
            "hosts": [
                "vip.lz",
                "hd.lz",
                "v.cdnlz"
            ],
            "name": "量子",
            "regex": [
                "18.5333"
            ]
        },
        {
            "hosts": [
                "vip.ffzy",
                "hd.ffzy"
            ],
            "name": "非凡",
            "regex": [
                "25.1999",
                "25.0666",
                "25.08",
                "20.52"
            ]
        },
        {
            "hosts": [
                "huoshan.com"
            ],
            "name": "火山嗅探",
            "regex": [
                "item_id="
            ]
        },
        {
            "hosts": [
                "douyin.com"
            ],
            "name": "抖音嗅探",
            "regex": [
                "is_play_url="
            ]
        },
        {
            "hosts": [
                "toutiaovod.com"
            ],
            "name": "农民嗅探",
            "regex": [
                "video/tos/cn"
            ]
        },
        {
            "hosts": [
                "api.52wyb.com"
            ],
            "name": "七新嗅探",
            "regex": [
                "m3u8?pt=m3u8"
            ]
        },
        {
            "hosts": [
                "10086.cn"
            ],
            "name": "czzy",
            "regex": [
                "/storageWeb/servlet/downloadServlet"
            ]
        },
        {
            "exclude": [
                ".m3u8"
            ],
            "hosts": [
                "bytetos.com",
                "byteimg.com",
                "bytednsdoc.com",
                "pstatp.com"
            ],
            "name": "bdys",
            "regex": [
                "/tos-cn"
            ]
        },
        {
            "exclude": [
                ".m3u8"
            ],
            "hosts": [
                "bdys10.com"
            ],
            "name": "bdys10",
            "regex": [
                "/obj/"
            ]
        }
    ],
    "ads": [
        "mimg.0c1q0l.cn",
        "www.googletagmanager.com",
        "www.google-analytics.com",
        "mc.usihnbcq.cn",
        "mg.g1mm3d.cn",
        "mscs.svaeuzh.cn",
        "cnzz.hhttm.top",
        "tp.vinuxhome.com",
        "cnzz.mmstat.com",
        "www.baihuillq.com",
        "s23.cnzz.com",
        "z3.cnzz.com",
        "c.cnzz.com",
        "stj.v1vo.top",
        "z12.cnzz.com",
        "img.mosflower.cn",
        "tips.gamevvip.com",
        "ehwe.yhdtns.com",
        "xdn.cqqc3.com",
        "www.jixunkyy.cn",
        "sp.chemacid.cn",
        "hm.baidu.com",
        "s9.cnzz.com",
        "z6.cnzz.com",
        "um.cavuc.com",
        "mav.mavuz.com",
        "wofwk.aoidf3.com",
        "z5.cnzz.com",
        "xc.hubeijieshikj.cn",
        "tj.tianwenhu.com",
        "xg.gars57.cn",
        "k.jinxiuzhilv.com",
        "cdn.bootcss.com",
        "ppl.xunzhuo123.com",
        "xomk.jiangjunmh.top",
        "img.xunzhuo123.com",
        "z1.cnzz.com",
        "s13.cnzz.com",
        "xg.huataisangao.cn",
        "z7.cnzz.com",
        "xg.huataisangao.cn",
        "z2.cnzz.com",
        "s96.cnzz.com",
        "q11.cnzz.com",
        "thy.dacedsfa.cn",
        "xg.whsbpw.cn",
        "s19.cnzz.com",
        "z8.cnzz.com",
        "s4.cnzz.com",
        "f5w.as12df.top",
        "ae01.alicdn.com",
        "www.92424.cn",
        "k.wudejia.com",
        "vivovip.mmszxc.top",
        "qiu.xixiqiu.com",
        "cdnjs.hnfenxun.com",
        "cms.qdwght.com",
        "wan.51img1.com",
        "iqiyi.hbuioo.com",
        "vip.ffzyad.com",
        "https://lf1-cdn-tos.bytegoofy.com/obj/tos-cn-i-dy/455ccf9e8ae744378118e4bd289288dd"
    ],
    "drives": [
        {
            "name": "阿里",
            "password": "43886374072944a2bcc55a0ed129ab48",
            "type": "alidrive"
        }
    ],
    "cost_time": 80.61
}