{
  "规则名": "开心阿里",
  "规则作者": " cally",
  "请求头参数": "MOBILE_UA",
  "网页编码格式": "UTF-8",
  "图片是否需要代理": "否",
  "是否开启获取首页数据": "是",
  "首页推荐链接": "https://tv.yydsys.top",
  "首页列表数组规则": "body&&.module-item",
  "首页片单列表数组规则": ".module-item",
  "首页片单是否Jsoup写法": "1",
  "分类起始页码": "1",
  "分类链接": "https://tv.yydsys.top/index.php/vod/show/area/{area}/by/{by}/class/{class}/id/{cateId}/lang/{lang}/year/{year}/page/{catePg}.html",
  "分类名称": "电影&剧集&动漫&综艺&音乐&短剧",
  "分类名称替换词": "1&2&3&4&5&44",
  "筛选数据": "ext",
  "筛选子分类名称": "",
  "筛选子分类替换词": "*",
  "筛选类型名称": "喜剧&爱情&恐怖&动作&科幻&剧情&战争&警匪&犯罪&动画&奇幻&武侠&冒险&枪战&恐怖&悬疑&惊悚&经典&青春&文艺&微电影&古装&历史&运动&农村&儿童&网络电影||古装&战争&青春偶像&喜剧&家庭&犯罪&动作&奇幻&剧情&历史&经典&乡村&情景&商战&网剧&其他||情感&科幻&热血&推理&搞笑&冒险&萝莉&校园&动作&机战&运动&战争&少年&少女&社会&原创&亲子&益智&励志&其他||选秀&情感&访谈&播报&旅游&音乐&美食&纪实&曲艺&生活&游戏互动&财经&求职||空||空",
  "筛选类型替换词": "喜剧&爱情&恐怖&动作&科幻&剧情&战争&警匪&犯罪&动画&奇幻&武侠&冒险&枪战&恐怖&悬疑&惊悚&经典&青春&文艺&微电影&古装&历史&运动&农村&儿童&网络电影||古装&战争&青春偶像&喜剧&家庭&犯罪&动作&奇幻&剧情&历史&经典&乡村&情景&商战&网剧&其他||情感&科幻&热血&推理&搞笑&冒险&萝莉&校园&动作&机战&运动&战争&少年&少女&社会&原创&亲子&益智&励志&其他||选秀&情感&访谈&播报&旅游&音乐&美食&纪实&曲艺&生活&游戏互动&财经&求职||空||空",
  "筛选地区名称": "大陆&香港&台湾&美国&法国&英国&日本&韩国&德国&泰国&印度&意大利&西班牙&加拿大&其他||内地&韩国&香港&台湾&日本&美国&泰国&英国&新加坡&其他||国产&日本&欧美&其他||内地&港台&日韩&欧美||空||空",
  "筛选地区替换词": "大陆&香港&台湾&美国&法国&英国&日本&韩国&德国&泰国&印度&意大利&西班牙&加拿大&其他||内地&韩国&香港&台湾&日本&美国&泰国&英国&新加坡&其他||国产&日本&欧美&其他||内地&港台&日韩&欧美||空||空",
  "筛选年份名称": "2024&2023&2022&2021&2020&2019&2018&2017&2016&2015&2014&2013&2012&2011&2010&2009&2008&2007&2006&2005&2004&2003&2002&2001&2000||2024&2023&2022&2021&2020&2019&2018&2017&2016&2015&2014&2013&2012&2011&2010&2009&2008&2007&2006&2005&2004&2003&2002&2001&2000||2024&2023&2022&2021&2020&2019&2018&2017&2016&2015&2014&2013&2012&2011&2010&2009&2008&2007&2006&2005&2004&2003&2002&2001&2000||2024&2023&2022&2021&2020&2019&2018&2017&2016&2015&2014&2013&2012&2011&2010&2009&2008&2007&2006&2005&2004&2003&2002&2001&2000||空||空",
  "筛选年份替换词": "2024&2023&2022&2021&2020&2019&2018&2017&2016&2015&2014&2013&2012&2011&2010&2009&2008&2007&2006&2005&2004&2003&2002&2001&2000||2024&2023&2022&2021&2020&2019&2018&2017&2016&2015&2014&2013&2012&2011&2010&2009&2008&2007&2006&2005&2004&2003&2002&2001&2000||2024&2023&2022&2021&2020&2019&2018&2017&2016&2015&2014&2013&2012&2011&2010&2009&2008&2007&2006&2005&2004&2003&2002&2001&2000||2024&2023&2022&2021&2020&2019&2018&2017&2016&2015&2014&2013&2012&2011&2010&2009&2008&2007&2006&2005&2004&2003&2002&2001&2000||空||空",
  "筛选语言名称": "国语&英语&粤语&闽南语&韩语&日语&法语&德语&其它||国语&英语&粤语&闽南语&韩语&日语&其它||国语&英语&粤语&闽南语&韩语&日语&法语&德语&其它||空||空||空",
  "筛选语言替换词": "国语&英语&粤语&闽南语&韩语&日语&法语&德语&其它||国语&英语&粤语&闽南语&韩语&日语&其它||国语&英语&粤语&闽南语&韩语&日语&法语&德语&其它||空||空||空",
  "筛选排序名称": "时间&人气&评分",
  "筛选排序替换词": "time&hits&score",
  "分类截取模式": "1",
  "分类列表数组规则": "body&&.module-item",
  "分类片单是否Jsoup写法": "是",
  "分类片单标题": "a&&title",
  "分类片单链接": "a&&href",
  "分类片单图片": "img&&data-src",
  "分类片单副标题": ".module-item-text&&Text",
  "分类片单链接加前缀": "https://tv.yydsys.top",
  "分类片单链接加后缀": "",
  "搜索请求头参数": "User-Agent$MOBILE_UA",
  "搜索链接": "https://tv.yydsys.top/index.php/vod/search.html?wd={wd}",
  "POST请求数据": "",
  "搜索截取模式": "1",
  "搜索列表数组规则": ".module-items&&.module-search-item",
  "搜索片单是否Jsoup写法": "是",
  "搜索片单图片": ".lazyload&&data-src",
  "搜索片单标题": "h3&&Text",
  "搜索片单链接": "h3&&a&&href",
  "搜索片单副标题": ".video-info&&a&&Text",
  "搜索片单链接加前缀": "https://tv.yydsys.top",
  "搜索片单链接加后缀": "",
  "链接是否直接播放": "否",
  "直接播放链接加前缀": "",
  "直接播放链接加后缀": "",
  "直接播放直链视频请求头": "",
  "详情是否Jsoup写法": "1",
  "类型详情": ".tag-link,1&&Text",
  "年代详情": ".video-info-aux&&a,-2&&Text",
  "地区详情": ".video-info-aux&&a,-1&&Text",
  "演员详情": ".video-info-main&&.video-info-actor,1&&Text",
  "简介详情": ".sqjj_a&&Text",
  "线路列表数组规则": ".module-tab-content",
  "线路标题": "span&&data-dropdown-value",
  "播放列表数组规则": ".scroll-box-y",
  "选集列表数组规则": ".module-row-title:matches(https://www.ali)",
  "选集标题链接是否Jsoup写法": "是",
  "选集标题": "h4&&Text",
  "选集链接": "p&&Text",
  "是否反转选集序列": "否",
  "选集链接加前缀": "",
  "选集链接加后缀": "",
  "分析MacPlayer": "",
  "是否开启手动嗅探": "0",
  "手动嗅探视频链接关键词": ".mp4#.m3u8#.flv#video/tos#.wma#.mp3",
  "手动嗅探视频链接过滤词": ".html#=http"
  }