{
    "作者": " Cally🈵",
    "站名": "神仙影视",
    "主页url": "https://ys.sxtv.top/",
    "简介": "【Cally🈵】提醒您请勿相信影片中的广告，以免上当受骗！+sqjj_a*>&&<",
    "影片类型": "link\"> <a*>&&</a>",
    "影片年代": "module-info-tag-link\">&&</a>",
    "影片地区": "module-info-tag-link\">**</a>&&</a>",
    "影片状态": "更新：</span>**</span>&&<div>",
    "搜索url": "https://ys.sxtv.top/index.php/vod/search.html?wd={wd}",
    "搜索数组": "play\"></i></a>&&/a>",
    "搜索标题": "title=\"&&\"",
    "搜索图片": "data-src=\"&&\"",
    "搜索链接": "href=\"&&\"",
    "搜索副标题": "video-serial\"*>&&<",
    "线路数组": "tab-item\"&&</div>",
    "线路标题": "<span>&&</span>[替换:神仙专线>>在线播放]",
    "免嗅": "1",
    "分类url": "https://ys.sxtv.top/index.php/vod/type/id/{cateId}/area/{area}/by/{by}/class/{class}/page/{catePg}/year/{year}.html",
    "分类": "电影$1#电视剧$2#动漫$4#短剧$5#综艺$3"
}