{
    "urls": [
        {"url": "clan://localhost/TVBox/lib/A.txt","name": "🍵绿茶影院(优选)"},
        
        {"url": "https://agit.ai/376242575/zzh/raw/branch/master/A.txt ","name": "🌈私人影院"},
        {"url": "https://agit.ai/zzzgit/zzz/raw/branch/main/proxxx.json","name": "🌹经典在线"},
		{"url": "http://52bsj.vip:98/18dxwoai","name": "🔞吾爱在线"},
		{"url": "http://8.210.232.168/fm18.json","name": "🐝蜂蜜在线"},
		{"url": "https://codeberg.org/caic/a/raw/branch/main/不正经.json","name": "🈳不正经线路"},
		{"url": "https://agit.ai/guot54/ygbh/raw/branch/master/dxwoai18+.txt","name": "🌙月光线路"},
		{"url": "https://agit.ai/SexTVBox/TVBox/raw/branch/master/18sex.txt","name": "🚀Sex线路"},
		{"url": "https://huhujunxx.neocities.org/AV.json","name": "🈚Huhujun线路"},
		{"url":"https://www.agit.ai/dlee2008/TVBOXZY/raw/commit/f1bd76d8b66ba95f98927c6ae8553dce196de3a7/18.json","name":"😍星河带飞"},
        {"url":"https://www.agit.ai/dlee2008/13800/raw/commit/314f2c309408ef11057ddfe8f588831895c66850/cr/c18.json","name":"😍肥猫带飞"},
		{"url": "http://52bsj.vip:81/api/v3/file/get/68420/fl%E6%8E%A5%E5%8F%A3.txt?sign=yowqWMosWpA9ssTwrUNhZKsf_HE8J_RY2mOnY3YBGEw%3D%3A0","name": "😍鲁班带飞"},
        {"url": "http://52bsj.vip:81/api/v3/file/get/68422/%E9%A3%9E%E6%9C%BA3%20.txt?sign=XOk1BCFag1pL-xqE9sBExIcApSt_qGrVo7DLlV-FMDk%3D%3A0","name": "😍元芳带飞"},
		{"url": "http://52bsj.vip:81/api/v3/file/get/68421/%E9%A3%9E%E6%9C%BA2.txt?sign=5QKm8I2Ovt10UywCyZcGXY7S9LN32e4OR_3wBw0jBJk%3D%3A0","name": "😍辅助带飞"},
	    {"url": "http://52bsj.vip:81/api/v3/file/get/65805/%E4%BA%BA%E4%BA%BA%E9%A3%9E%E6%9C%BA.txt?sign=NsiWQIsvkHQukAmfGvrz1NbVDw2YY1-axLDdKW6i_1g%3D%3A0","name": "😍打野带飞"},
        {"url":"https://agit.ai/84816647/xxxf/raw/branch/master/lib/tvbox.json","name":"🏝🌈tvbox影院"},
        {"url":"https://agit.ai/84816647/xxxf/raw/branch/master/Ai/juyou.json","name":"🏝🌈酒友影院"},
        {"url":"https://agit.ai/84816647/xxxf/raw/branch/master/Ai/18.json","name":"🏝🌈聚合直播"},
        {"url":"https://agit.ai/84816647/xxxf/raw/branch/master/Ai/vip.json","name":"🏝🌈娱乐影院03"},
        {"url":"https://agit.ai/84816647/xxxf/raw/branch/master/Ai/1.json","name":"🏝🌈娱乐影院04"},
        {"url":"https://agit.ai/84816647/xxxf/raw/branch/master/Ai/2.json","name":"🏝🌈娱乐影院05"},
        {"url":"https://agit.ai/84816647/xxxf/raw/branch/master/Ai/3.json","name":"🏝🌈娱乐影院06"},
        {"url":"https://agit.ai/84816647/xxxf/raw/branch/master/Ai/4.json","name":"🏝🌈娱乐影院07"},
        {"url":"https://agit.ai/84816647/xxxf/raw/branch/master/Ai/6.json","name":"🏝🌈娱乐影院08"},
        {"url":"https://agit.ai/84816647/xxxf/raw/branch/master/Ai/7.json","name":"🏝🌈娱乐影院09"},
		{"url": "http://52bsj.vip:81/api/v3/file/get/67277/%E9%A5%AD%E5%A4%AA%E7%A1%AC.txt?sign=eG6j5FH3YGcHvUA6_cm9sMj8pZCTRCRiPcgoXKWoC54%3D%3A0","name": "🔞饭太硬"},
        {"url": "http://52bsj.vip:81/api/v3/file/get/67682/18.txt?sign=CfiRUX7pBw1EWK0pO1E8zHsXBUiaWndCzG6f_1J0u7k%3D%3A0","name": "🔞星河软件园"},
		{"url":"https://agit.ai/138001380000/MHQTV/raw/branch/master/cr/c18.json","name":"❤️性用社"},
        {"url":"https://agit.ai/pinghui/xinghe/raw/branch/master/慎用TVBOX福利接口.txt","name":"🔞xinghe"},
        //{"url":"https://agit.ai/guot54/ygbh/raw/branch/master/plus/PRO.json","name":"🔞月光宝盒Plus"},
        {"url":"https://agit.ai/138001380000/MHQTV/raw/branch/master/cr/nbsy.json","name":"🔞老马18+"},
        {"url":"https://agit.ai/138001380000/MHQTV/raw/branch/master/cr/qiaoj.json","name":"🔞巧计18+"},
        {"url":"https://ghproxy.net/https://raw.githubusercontent.com/2hacc/TVBox/main/h/h.json","name":"🔞二哈社区(H)"},
        //{"url":"http://shuyuan.miaogongzi.net/shuyuan/1670490831.txt","name":"🚞高速动车🚄"},
        {"url":"https://jsd.cdn.zzko.cn/gh/2hacc/TVBox@main/h/h.json","name":"🛫🛣飞机场1"},
        //{"url":"https://raw.iqiq.io/zhanghong1983/TVBOXZY/main/TVBOX/proxygr.json","name":"✈️飞机场2"},
		{"url":"https://mpimg.cn/down.php/71619663801190a09db627d591cd5cad.msll&e4f28a49643fedf735775a7b1ddb567f","name":"🔞18+1"},
        {"url":"https://mpimg.cn/down.php/2008aed3ab6045d4a01571793abc1298.msll&e4f28a49643fedf735775a7b1ddb567f","name":"🔞18+2"},
        {"url":"https://mpimg.cn/down.php/d10a1024265ba7d1a8573715c23cf647.msll&e4f28a49643fedf735775a7b1ddb567f","name":"🔞18+3"},
        {"url": "https://agit.ai/138001380000/MHQTV/raw/branch/master/cr/1130cz.json","name": "🔞MHQTV.1130cz"},
        {"url": "https://agit.ai/138001380000/MHQTV/raw/branch/master/sm.json","name": "🔞MHQTV.sm"},
        {"url": "https://agit.ai/maoys/PyramidStore/raw/branch/main/base/fm.json","name": "🔞PyramidStore"},
        {"url": "https://agit.ai/fenwe/TVBox/raw/branch/master/dxwoai18+.json","name": "🔞fenwed.xwoai18+"},
        {"url": "https://agit.ai/fenwe/TVBox/raw/branch/master/adult.json","name": "🔞fenwe.adult"},
        {"url": "https://agit.ai/fenwe/TVBox/raw/branch/master/ziyong.json","name": "🔞fenwe.ziyong"},
        {"url": "https://agit.ai/xixi/yizhan/raw/branch/master/b.txt","name": "🔞xixi驿站"},
        {"url": "https://agit.ai/zqk219/baip/raw/branch/main/duocangku/jpg/1.jpg","name": "🔞baip 1"},
        {"url": "https://agit.ai/zqk219/baip/raw/branch/main/duocangku/jpg/2.jpg","name": "🔞baip 2"},
        {"url": "https://agit.ai/zqk219/baip/raw/branch/main/duocangku/jpg/3.jpg","name": "🔞baip 3"},
        {"url": "https://agit.ai/zqk219/baip/raw/branch/main/duocangku/jpg/4.jpg","name": "🔞baip 4"},
        {"url": "https://agit.ai/zqk219/baip/raw/branch/main/duocangku/jpg/5.jpg","name": "🔞baip 5"},
        {"url": "https://agit.ai/zqk219/baip/raw/branch/main/duocangku/jpg/6.jpg","name": "🔞baip 6"},
        {"url": "https://agit.ai/zqk219/baip/raw/branch/main/duocangku/jpg/7.jpg","name": "🔞baip 7"},
        {"url": "https://agit.ai/zqk219/baip/raw/branch/main/duocangku/jpg/9+9.jpg","name": "🔞baip 9+9"},
        {"url": "https://files.cnblogs.com/files/johnjackson/tvbox.json","name": "🔞johnjackson"},
        {"url": "https://agit.ai/study520x/x/raw/branch/master/AV.json","name": "🔞Study520x"},
		{"url": "https://download.kstore.space/download/2883/PY/0902mystv.txt","name": "🐜蚂蚁论坛"},
		{"url":"https://ghproxy.net/https://raw.githubusercontent.com/yschaizhen/xian/main/hh","name":"🔞XXXXXZ"},
        {"url":"https://ghproxy.net/https://raw.githubusercontent.com/yschaizhen/tvbox/main/xxx1","name":"🔞XXX1"},
        {"url":"https://ghproxy.net/https://raw.githubusercontent.com/yschaizhen/tvbox/main/xxx2","name":"🔞XXX2"},
        {"url":"https://ghproxy.net/https://raw.githubusercontent.com/yschaizhen/tvbox/main/xxx3","name":"🔞XXX3"},
        {"url":"https://agit.ai/yschaizhen/TVboxo/raw/branch/main/Text/18.json","name":"🔞XXX4"},
        {"url":"https://ghproxy.net/https://raw.githubusercontent.com/c120487/00/main/00tvx1.txt","name":"🔞Peter(H)"},
        {"url":"https://codeberg.org/maomitv/TVBox-Pro/raw/branch/main/9.26%E7%A6%8F%E5%88%A9.txt","name":"🔞18线路"},
        {"url":"https://codeberg.org/maomitv/TVBox-Pro/raw/branch/main/18+.txt","name":"🔞18+线路"},
        {"url":"https://codeberg.org/maomitv/TVBox-Pro/raw/branch/main/18jin.json","name":"🔞18jin线路"},
        {"url":"https://codeberg.org/maomitv/TVBox-Pro/raw/branch/main/888.json","name":"🔞888线路"},
        {"url":"https://codeberg.org/maomitv/TVBox-Pro/raw/branch/main/PRO.json","name":"🔞PRO线路"},
        {"url":"https://codeberg.org/maomitv/TVBox-Pro/raw/branch/main/Yoursmile18.json","name":"🔞Yoursmile18线路"},
        {"url":"https://codeberg.org/maomitv/TVBox-Pro/raw/branch/main/dxwoai18.txt","name":"??dxwoai18线路"},
        {"url":"https://codeberg.org/maomitv/TVBox-Pro/raw/branch/main/fuli0718.txt","name":"🔞fuli专线"},
        {"url":"https://codeberg.org/maomitv/TVBox-Pro/raw/branch/main/h.txt","name":"🔞H专线"},
        {"url":"https://codeberg.org/maomitv/TVBox-Pro/raw/branch/main/maodu.txt","name":"🔞maodu线路"},
        {"url":"https://codeberg.org/maomitv/TVBox-Pro/raw/branch/main/maodu2.json","name":"🔞maodu2线路"},
        {"url":"https://codeberg.org/maomitv/TVBox-Pro/raw/branch/main/tvbox18.json","name":"🔞tvbox18线路"},
        {"url":"https://codeberg.org/maomitv/TVBox-Pro/raw/branch/main/vip.json","name":"🔞vip线路"},
        {"url":"https://codeberg.org/maomitv/TVBox-Pro/raw/branch/main/wq18.json","name":"🔞wq线路"},
        {"url":"https://codeberg.org/maomitv/TVBox-Pro/raw/branch/main/xys18.json","name":"🔞xys线路"},
        {"url":"https://agit.ai/66666/mao/raw/branch/master/00/ziyong.json","name":"🔞ziyong线路"},
        {"url":"https://agit.ai/ABCD/box/raw/branch/master/18+","name":"🔞18+线路"},
        {"url":"http://152.136.125.181:81/MM/dianbos/MultiLine/JiuYing/BBB.json","name": "🔞JiuYing线路"},
        {"url":"https://agit.ai/ccy/MHQTV/raw/branch/master/sm.json","name": "🔞MHQTV线路"}
    ]
}